<?xml version="1.0" encoding="UTF-8" standalone="no"?>
<!-- Created with Inkscape (http://www.inkscape.org/) -->

<svg
   xmlns:osb="http://www.openswatchbook.org/uri/2009/osb"
   xmlns:dc="http://purl.org/dc/elements/1.1/"
   xmlns:cc="http://creativecommons.org/ns#"
   xmlns:rdf="http://www.w3.org/1999/02/22-rdf-syntax-ns#"
   xmlns:svg="http://www.w3.org/2000/svg"
   xmlns="http://www.w3.org/2000/svg"
   xmlns:xlink="http://www.w3.org/1999/xlink"
   xmlns:sodipodi="http://sodipodi.sourceforge.net/DTD/sodipodi-0.dtd"
   xmlns:inkscape="http://www.inkscape.org/namespaces/inkscape"
   width="1286.843mm"
   height="1286.843mm"
   viewBox="0 0 1286.843 1286.843"
   version="1.1"
   id="svg2746"
   inkscape:version="0.92.2 (5c3e80d, 2017-08-06)"
   sodipodi:docname="Assets-hover.svg"
   inkscape:export-filename="C:\Users\Sadegnabil\Documents\Git\Assets\Assets.png"
   inkscape:export-xdpi="96"
   inkscape:export-ydpi="96">
  <sodipodi:namedview
     id="base"
     pagecolor="#ffffff"
     bordercolor="#666666"
     borderopacity="1.0"
     inkscape:pageopacity="0.0"
     inkscape:pageshadow="2"
     inkscape:zoom="0.087500001"
     inkscape:cx="1009.6922"
     inkscape:cy="1826.2915"
     inkscape:document-units="mm"
     inkscape:current-layer="g6761"
     showgrid="false"
     inkscape:window-width="1920"
     inkscape:window-height="1057"
     inkscape:window-x="-8"
     inkscape:window-y="-8"
     inkscape:window-maximized="1"
     inkscape:snap-global="false" />
  <defs
     id="defs2740">
    <pattern
       inkscape:collect="always"
       xlink:href="#Checkerboard"
       id="pattern8516"
       patternTransform="scale(26.05951,26.469291)" />
    <pattern
       inkscape:stockid="Checkerboard"
       id="Checkerboard"
       patternTransform="translate(0,0) scale(10,10)"
       height="2"
       width="2"
       patternUnits="userSpaceOnUse"
       inkscape:collect="always"
       inkscape:isstock="true">
      <rect
         id="rect7563"
         height="1"
         width="1"
         y="0"
         x="0"
         style="fill:black;stroke:none" />
      <rect
         id="rect7565"
         height="1"
         width="1"
         y="1"
         x="1"
         style="fill:black;stroke:none" />
    </pattern>
    <linearGradient
       id="linearGradient8479"
       osb:paint="solid">
      <stop
         style="stop-color:#5f5f5f;stop-opacity:1;"
         offset="0"
         id="stop8477" />
    </linearGradient>
    <filter
       inkscape:collect="always"
       style="color-interpolation-filters:sRGB"
       id="filter1453"
       x="-0.12"
       width="1.24"
       y="-0.12"
       height="1.24">
      <feGaussianBlur
         inkscape:collect="always"
         stdDeviation="185.90933"
         id="feGaussianBlur1455" />
    </filter>
    <filter
       inkscape:collect="always"
       style="color-interpolation-filters:sRGB"
       id="filter1457"
       x="-0.18470456"
       width="1.3694091"
       y="-0.17523986"
       height="1.3504797">
      <feGaussianBlur
         inkscape:collect="always"
         stdDeviation="185.90933"
         id="feGaussianBlur1459" />
    </filter>
    <filter
       inkscape:collect="always"
       style="color-interpolation-filters:sRGB"
       id="filter1461"
       x="-0.25385368"
       width="1.5077074"
       y="-0.23860848"
       height="1.477217">
      <feGaussianBlur
         inkscape:collect="always"
         stdDeviation="12.53272"
         id="feGaussianBlur1463" />
    </filter>
    <filter
       inkscape:collect="always"
       style="color-interpolation-filters:sRGB"
       id="filter1465"
       x="-0.12"
       width="1.24"
       y="-0.12"
       height="1.24">
      <feGaussianBlur
         inkscape:collect="always"
         stdDeviation="185.90933"
         id="feGaussianBlur1467" />
    </filter>
  </defs>
  <metadata
     id="metadata2743">
    <rdf:RDF>
      <cc:Work
         rdf:about="">
        <dc:format>image/svg+xml</dc:format>
        <dc:type
           rdf:resource="http://purl.org/dc/dcmitype/StillImage" />
        <dc:title />
      </cc:Work>
    </rdf:RDF>
  </metadata>
  <g
     id="layer1"
     inkscape:groupmode="layer"
     inkscape:label="Layer 1"
     transform="translate(99.890778,992.00583)" />
  <g
     id="g6761"
     inkscape:label="Cube:x14.20:y10.80:x0.00:x0.00:y0.00:x0.00"
     transform="matrix(0.26416077,-0.0149475,0.0149475,0.26416077,170.26481,1117.1859)">
    <path
       style="opacity:1;fill:#344b81;fill-opacity:1;stroke:#2f2f2f;stroke-width:61.34090805;stroke-linecap:round;stroke-linejoin:round;stroke-miterlimit:4;stroke-dasharray:none;stroke-dashoffset:94.4881897;stroke-opacity:1;paint-order:normal;filter:url(#filter1453)"
       d="M 3742.7363,-1581.6877 A 1859.0933,1859.0934 13.310551 0 1 1781.5835,169.40788 1859.0933,1859.0934 13.310551 0 1 30.487887,-1791.7449 1859.0933,1859.0934 13.310551 0 1 1991.6406,-3542.8405 1859.0933,1859.0934 13.310551 0 1 3742.7363,-1581.6877 Z"
       id="path8530"
       inkscape:connector-curvature="0" />
    <path
       inkscape:connector-curvature="0"
       style="opacity:0.35499998;fill:#000000;fill-opacity:1;stroke:none;stroke-width:61.34090805;stroke-linecap:round;stroke-linejoin:round;stroke-miterlimit:4;stroke-dasharray:none;stroke-dashoffset:94.4881897;stroke-opacity:1;paint-order:normal;filter:url(#filter1457)"
       d="m 2518.4966,-2580.4148 -1268.484,1799.44206 1527.101,765.388506 c 547.0304,-312.242306 898.7567,-880.231656 934.4999,-1509.087366 1.1632,-27.0263 1.7374,-54.0747 1.7206,-81.126 z"
       id="path8530-4"
       sodipodi:nodetypes="cccccc" />
    <g
       id="g8584"
       transform="matrix(14.945784,0.01265214,0.01265239,14.722899,1886.6121,-1686.7163)"
       style="filter:url(#filter1461)">
      <path
         sodipodi:nodetypes="ccccc"
         inkscape:connector-curvature="0"
         d="m 60.495461,-36.206898 h -98.228725 l -4.596602,96.944535 h 98.228725 z"
         style="fill:#d30b0b;fill-opacity:1;stroke:#ffffff;stroke-width:2.37732291;stroke-linecap:round;stroke-linejoin:round;stroke-miterlimit:4;stroke-dasharray:none;stroke-opacity:1"
         inkscape:label="Face:0"
         id="path6755" />
      <path
         inkscape:connector-curvature="0"
         d="M 60.495461,-36.206898 42.329866,-60.737637 h -98.228725 l 18.165595,24.530739 z"
         style="fill:#00b53c;fill-opacity:1;stroke:#ffffff;stroke-width:2.37732291;stroke-linecap:round;stroke-linejoin:round;stroke-miterlimit:4;stroke-dasharray:none;stroke-opacity:1"
         inkscape:label="Face:2"
         id="path6757" />
      <path
         inkscape:connector-curvature="0"
         d="m -37.733264,-36.206898 -18.165595,-24.530739 -4.596602,96.944535 18.165595,24.530739 z"
         style="fill:#0036b5;fill-opacity:1;stroke:#ffffff;stroke-width:2.37732291;stroke-linecap:round;stroke-linejoin:round;stroke-miterlimit:4;stroke-dasharray:none;stroke-opacity:1"
         inkscape:label="Face:3"
         id="path6759" />
    </g>
    <path
       style="opacity:1;fill:none;fill-opacity:1;stroke:#2f2f2f;stroke-width:61.34090805;stroke-linecap:round;stroke-linejoin:round;stroke-miterlimit:4;stroke-dasharray:none;stroke-dashoffset:94.4881897;stroke-opacity:1;paint-order:normal;filter:url(#filter1465)"
       d="M 3742.7363,-1581.6877 A 1859.0933,1859.0934 13.310551 0 1 1781.5835,169.40788 1859.0933,1859.0934 13.310551 0 1 30.487887,-1791.7449 1859.0933,1859.0934 13.310551 0 1 1991.6406,-3542.8405 1859.0933,1859.0934 13.310551 0 1 3742.7363,-1581.6877 Z"
       id="path8530-1"
       inkscape:connector-curvature="0" />
    <g
       aria-label="Assets"
       transform="rotate(3.23862)"
       style="font-style:normal;font-weight:normal;font-size:179.83247375px;line-height:1.25;font-family:sans-serif;letter-spacing:0px;word-spacing:0px;fill:#ffffff;fill-opacity:1;stroke:none;stroke-width:4.49581194"
       id="text1471">
      <path
         d="m 585.18746,-1482.502 211.58416,-627.5872 h 102.8417 l 211.58418,627.5872 h -88.0898 l -56.90017,-175.3366 H 726.38406 l -56.90012,175.3366 z m 357.83854,-246.5671 -96.94095,-295.8807 -96.51946,295.8807 z"
         style="font-style:normal;font-variant:normal;font-weight:normal;font-stretch:normal;font-size:863.19592285px;font-family:Tahoma;-inkscape-font-specification:Tahoma;fill:#ffffff;fill-opacity:1;stroke-width:4.49581194"
         id="path1473" />
      <path
         d="m 1291.592,-1471.1219 q -47.2061,0 -88.5114,-12.6445 -40.8837,-12.6445 -67.8586,-26.9749 v -88.9328 h 4.2148 q 10.1156,8.0082 23.603,17.7023 13.9089,9.6941 36.669,20.2312 20.2311,9.2726 44.2556,16.4378 24.446,7.1652 50.5779,7.1652 18.9667,0 40.4623,-4.2149 21.4956,-4.6363 32.0327,-11.38 14.7519,-9.6941 21.0741,-20.6526 6.7437,-10.9586 6.7437,-32.8756 0,-28.2394 -15.5948,-42.5698 -15.1734,-14.3304 -54.3712,-24.0245 -15.1734,-3.7933 -39.6194,-8.8511 -24.446,-5.0578 -45.0986,-10.9585 -53.9497,-15.5949 -78.3957,-48.049 -24.446,-32.8756 -24.446,-79.2387 0,-63.6438 48.049,-103.6847 48.049,-40.0408 127.7092,-40.0408 39.1978,0 78.8172,9.6941 39.6193,9.6941 66.5942,24.446 v 84.7179 h -4.2148 q -30.3468,-24.0245 -67.8587,-37.9334 -37.0905,-13.9089 -75.0239,-13.9089 -39.1978,0 -66.1727,16.4378 -26.9749,16.4378 -26.9749,49.7349 0,29.5038 16.0163,44.2557 16.0164,14.3304 51.4209,23.603 17.7023,4.6363 39.1979,9.2726 21.917,4.2148 45.9415,10.1156 52.2639,13.0659 78.3958,43.4127 26.5534,30.3467 26.5534,82.6105 0,30.3468 -12.223,57.7431 -11.8015,26.9749 -34.9831,46.3631 -25.2889,21.0741 -57.3216,32.0326 -31.6112,10.9586 -79.6601,10.9586 z"
         style="font-style:normal;font-variant:normal;font-weight:normal;font-stretch:normal;font-size:863.19592285px;font-family:Tahoma;-inkscape-font-specification:Tahoma;fill:#ffffff;fill-opacity:1;stroke-width:4.49581194"
         id="path1475" />
      <path
         d="m 1677.6698,-1471.1219 q -47.2061,0 -88.5113,-12.6445 -40.8838,-12.6445 -67.8587,-26.9749 v -88.9328 h 4.2148 q 10.1156,8.0082 23.603,17.7023 13.909,9.6941 36.669,20.2312 20.2312,9.2726 44.2557,16.4378 24.4459,7.1652 50.5778,7.1652 18.9668,0 40.4624,-4.2149 21.4956,-4.6363 32.0326,-11.38 14.7519,-9.6941 21.0741,-20.6526 6.7438,-10.9586 6.7438,-32.8756 0,-28.2394 -15.5949,-42.5698 -15.1734,-14.3304 -54.3712,-24.0245 -15.1734,-3.7933 -39.6194,-8.8511 -24.4459,-5.0578 -45.0986,-10.9585 -53.9497,-15.5949 -78.3957,-48.049 -24.446,-32.8756 -24.446,-79.2387 0,-63.6438 48.049,-103.6847 48.049,-40.0408 127.7092,-40.0408 39.1978,0 78.8172,9.6941 39.6193,9.6941 66.5942,24.446 v 84.7179 h -4.2148 q -30.3468,-24.0245 -67.8587,-37.9334 -37.0904,-13.9089 -75.0239,-13.9089 -39.1978,0 -66.1727,16.4378 -26.9749,16.4378 -26.9749,49.7349 0,29.5038 16.0164,44.2557 16.0163,14.3304 51.4208,23.603 17.7023,4.6363 39.1979,9.2726 21.9171,4.2148 45.9416,10.1156 52.2638,13.0659 78.3957,43.4127 26.5534,30.3467 26.5534,82.6105 0,30.3468 -12.223,57.7431 -11.8015,26.9749 -34.9831,46.3631 -25.2889,21.0741 -57.3216,32.0326 -31.6111,10.9586 -79.6601,10.9586 z"
         style="font-style:normal;font-variant:normal;font-weight:normal;font-stretch:normal;font-size:863.19592285px;font-family:Tahoma;-inkscape-font-specification:Tahoma;fill:#ffffff;fill-opacity:1;stroke-width:4.49581194"
         id="path1477" />
      <path
         d="m 2140.8789,-1471.5434 q -112.5358,0 -174.9152,-63.2224 -61.9579,-63.6438 -61.9579,-180.3944 0,-115.0647 60.272,-182.9234 60.272,-68.2801 157.6344,-68.2801 43.8342,0 77.5528,12.6444 33.7186,12.6445 59.0075,39.6194 25.289,26.9749 38.7764,66.1727 13.4874,38.7764 13.4874,95.255 v 42.9912 H 1984.509 q 0,82.1891 41.3052,125.6018 41.3053,43.4127 114.2218,43.4127 26.1319,0 50.9993,-5.9008 25.289,-5.9007 45.5201,-15.1733 21.4956,-9.6941 36.2475,-18.5453 14.7519,-9.2726 24.446,-17.2807 h 4.6363 v 86.4038 q -13.9089,5.4793 -34.5616,13.909 -20.6526,8.0081 -37.0904,12.6444 -23.1815,6.3223 -42.1482,9.6941 -18.5453,3.3719 -47.2061,3.3719 z m 92.7262,-298.831 q -0.843,-32.0327 -7.5867,-55.2142 -6.7437,-23.1815 -19.3882,-39.1979 -13.9089,-17.7022 -35.826,-26.9748 -21.4956,-9.2727 -53.5283,-9.2727 -31.6112,0 -53.9497,9.6941 -21.9171,9.2726 -40.0409,27.3964 -17.7022,18.5452 -26.9748,41.3053 -9.2726,22.3385 -11.8015,52.2638 z"
         style="font-style:normal;font-variant:normal;font-weight:normal;font-stretch:normal;font-size:863.19592285px;font-family:Tahoma;-inkscape-font-specification:Tahoma;fill:#ffffff;fill-opacity:1;stroke-width:4.49581194"
         id="path1479" />
      <path
         d="m 2534.1219,-1473.2293 q -64.9082,0 -101.1557,-36.669 -36.2475,-37.0905 -36.2475,-116.7506 v -260.8976 h -53.5283 v -65.7513 h 53.5283 v -135.2958 h 79.2387 v 135.2958 h 145.8329 v 65.7513 h -145.8329 v 223.8071 q 0,35.826 1.2644,55.2142 1.2645,19.3882 9.6941,36.2475 7.1652,14.7519 23.1815,22.3386 16.0164,7.1652 43.4127,7.1652 19.3882,0 37.512,-5.4793 18.1237,-5.9008 26.1319,-9.6941 h 4.6363 v 71.2305 q -22.3386,6.3223 -45.5201,9.6941 -22.7601,3.7934 -42.1483,3.7934 z"
         style="font-style:normal;font-variant:normal;font-weight:normal;font-stretch:normal;font-size:863.19592285px;font-family:Tahoma;-inkscape-font-specification:Tahoma;fill:#ffffff;fill-opacity:1;stroke-width:4.49581194"
         id="path1481" />
      <path
         d="m 2807.2425,-1471.1219 q -47.206,0 -88.5113,-12.6445 -40.8838,-12.6445 -67.8586,-26.9749 v -88.9328 h 4.2148 q 10.1156,8.0082 23.603,17.7023 13.9089,9.6941 36.669,20.2312 20.2311,9.2726 44.2556,16.4378 24.446,7.1652 50.5779,7.1652 18.9667,0 40.4623,-4.2149 21.4956,-4.6363 32.0327,-11.38 14.7519,-9.6941 21.0741,-20.6526 6.7437,-10.9586 6.7437,-32.8756 0,-28.2394 -15.5948,-42.5698 -15.1734,-14.3304 -54.3713,-24.0245 -15.1733,-3.7933 -39.6193,-8.8511 -24.446,-5.0578 -45.0986,-10.9585 -53.9498,-15.5949 -78.3958,-48.049 -24.4459,-32.8756 -24.4459,-79.2387 0,-63.6438 48.049,-103.6847 48.049,-40.0408 127.7091,-40.0408 39.1979,0 78.8172,9.6941 39.6194,9.6941 66.5942,24.446 v 84.7179 h -4.2148 q -30.3467,-24.0245 -67.8586,-37.9334 -37.0905,-13.9089 -75.0239,-13.9089 -39.1979,0 -66.1727,16.4378 -26.9749,16.4378 -26.9749,49.7349 0,29.5038 16.0163,44.2557 16.0164,14.3304 51.4209,23.603 17.7022,4.6363 39.1978,9.2726 21.9171,4.2148 45.9416,10.1156 52.2638,13.0659 78.3957,43.4127 26.5534,30.3467 26.5534,82.6105 0,30.3468 -12.223,57.7431 -11.8015,26.9749 -34.983,46.3631 -25.2889,21.0741 -57.3216,32.0326 -31.6112,10.9586 -79.6602,10.9586 z"
         style="font-style:normal;font-variant:normal;font-weight:normal;font-stretch:normal;font-size:863.19592285px;font-family:Tahoma;-inkscape-font-specification:Tahoma;fill:#ffffff;fill-opacity:1;stroke-width:4.49581194"
         id="path1483" />
    </g>
  </g>
</svg>
