<?xml version="1.0" encoding="UTF-8" standalone="no"?>
<!-- Created with Inkscape (http://www.inkscape.org/) -->

<svg
   xmlns:osb="http://www.openswatchbook.org/uri/2009/osb"
   xmlns:dc="http://purl.org/dc/elements/1.1/"
   xmlns:cc="http://creativecommons.org/ns#"
   xmlns:rdf="http://www.w3.org/1999/02/22-rdf-syntax-ns#"
   xmlns:svg="http://www.w3.org/2000/svg"
   xmlns="http://www.w3.org/2000/svg"
   xmlns:xlink="http://www.w3.org/1999/xlink"
   xmlns:sodipodi="http://sodipodi.sourceforge.net/DTD/sodipodi-0.dtd"
   xmlns:inkscape="http://www.inkscape.org/namespaces/inkscape"
   width="1000mm"
   height="1000mm"
   viewBox="0 0 1000 1000"
   version="1.1"
   id="svg2746"
   inkscape:version="0.92.2 (5c3e80d, 2017-08-06)"
   sodipodi:docname="Assets.svg"
   inkscape:export-filename="C:\Users\Sadegnabil\Documents\Git\Assets\Assets.png"
   inkscape:export-xdpi="96"
   inkscape:export-ydpi="96">
  <sodipodi:namedview
     id="base"
     pagecolor="#ffffff"
     bordercolor="#666666"
     borderopacity="1.0"
     inkscape:pageopacity="0.0"
     inkscape:pageshadow="2"
     inkscape:zoom="0.087500001"
     inkscape:cx="-4048.7751"
     inkscape:cy="1809.9402"
     inkscape:document-units="mm"
     inkscape:current-layer="g6761"
     showgrid="false"
     inkscape:window-width="1920"
     inkscape:window-height="1057"
     inkscape:window-x="-8"
     inkscape:window-y="-8"
     inkscape:window-maximized="1"
     inkscape:snap-global="false" />
  <defs
     id="defs2740">
    <pattern
       inkscape:collect="always"
       xlink:href="#Checkerboard"
       id="pattern8516"
       patternTransform="scale(26.05951,26.469291)" />
    <pattern
       inkscape:stockid="Checkerboard"
       id="Checkerboard"
       patternTransform="translate(0,0) scale(10,10)"
       height="2"
       width="2"
       patternUnits="userSpaceOnUse"
       inkscape:collect="always"
       inkscape:isstock="true">
      <rect
         id="rect7563"
         height="1"
         width="1"
         y="0"
         x="0"
         style="fill:black;stroke:none" />
      <rect
         id="rect7565"
         height="1"
         width="1"
         y="1"
         x="1"
         style="fill:black;stroke:none" />
    </pattern>
    <linearGradient
       id="linearGradient8479"
       osb:paint="solid">
      <stop
         style="stop-color:#5f5f5f;stop-opacity:1;"
         offset="0"
         id="stop8477" />
    </linearGradient>
  </defs>
  <metadata
     id="metadata2743">
    <rdf:RDF>
      <cc:Work
         rdf:about="">
        <dc:format>image/svg+xml</dc:format>
        <dc:type
           rdf:resource="http://purl.org/dc/dcmitype/StillImage" />
        <dc:title />
      </cc:Work>
    </rdf:RDF>
  </metadata>
  <g
     id="layer1"
     inkscape:groupmode="layer"
     inkscape:label="Layer 1"
     transform="translate(-43.53074,848.58431)" />
  <g
     id="g6761"
     inkscape:label="Cube:x14.20:y10.80:x0.00:x0.00:y0.00:x0.00"
     transform="matrix(0.26416077,-0.0149475,0.0149475,0.26416077,26.843294,973.76441)">
    <path
       style="opacity:1;fill:#344b81;fill-opacity:1;stroke:#2f2f2f;stroke-width:61.34090805;stroke-linecap:round;stroke-linejoin:round;stroke-miterlimit:4;stroke-dasharray:none;stroke-dashoffset:94.4881897;stroke-opacity:1;paint-order:normal"
       d="M 3742.7363,-1581.6877 A 1859.0933,1859.0934 13.310551 0 1 1781.5835,169.40788 1859.0933,1859.0934 13.310551 0 1 30.487887,-1791.7449 1859.0933,1859.0934 13.310551 0 1 1991.6406,-3542.8405 1859.0933,1859.0934 13.310551 0 1 3742.7363,-1581.6877 Z"
       id="path8530"
       inkscape:connector-curvature="0" />
    <path
       inkscape:connector-curvature="0"
       style="opacity:0.35499998;fill:#000000;fill-opacity:1;stroke:none;stroke-width:61.34090805;stroke-linecap:round;stroke-linejoin:round;stroke-miterlimit:4;stroke-dasharray:none;stroke-dashoffset:94.4881897;stroke-opacity:1;paint-order:normal"
       d="m 2518.4966,-2580.4148 -1268.484,1799.44206 1527.101,765.388506 c 547.0304,-312.242306 898.7567,-880.231656 934.4999,-1509.087366 1.1632,-27.0263 1.7374,-54.0747 1.7206,-81.126 z"
       id="path8530-4"
       sodipodi:nodetypes="cccccc" />
    <g
       id="g8584"
       transform="matrix(14.945784,0.01265214,0.01265239,14.722899,1886.6121,-1686.7163)">
      <path
         sodipodi:nodetypes="ccccc"
         inkscape:connector-curvature="0"
         d="m 60.495461,-36.206898 h -98.228725 l -4.596602,96.944535 h 98.228725 z"
         style="fill:#d30b0b;fill-opacity:1;stroke:#ffffff;stroke-width:2.37732291;stroke-linecap:round;stroke-linejoin:round;stroke-miterlimit:4;stroke-dasharray:none;stroke-opacity:1"
         inkscape:label="Face:0"
         id="path6755" />
      <path
         inkscape:connector-curvature="0"
         d="M 60.495461,-36.206898 42.329866,-60.737637 h -98.228725 l 18.165595,24.530739 z"
         style="fill:#00b53c;fill-opacity:1;stroke:#ffffff;stroke-width:2.37732291;stroke-linecap:round;stroke-linejoin:round;stroke-miterlimit:4;stroke-dasharray:none;stroke-opacity:1"
         inkscape:label="Face:2"
         id="path6757" />
      <path
         inkscape:connector-curvature="0"
         d="m -37.733264,-36.206898 -18.165595,-24.530739 -4.596602,96.944535 18.165595,24.530739 z"
         style="fill:#0036b5;fill-opacity:1;stroke:#ffffff;stroke-width:2.37732291;stroke-linecap:round;stroke-linejoin:round;stroke-miterlimit:4;stroke-dasharray:none;stroke-opacity:1"
         inkscape:label="Face:3"
         id="path6759" />
    </g>
    <path
       style="opacity:1;fill:none;fill-opacity:1;stroke:#2f2f2f;stroke-width:61.34090805;stroke-linecap:round;stroke-linejoin:round;stroke-miterlimit:4;stroke-dasharray:none;stroke-dashoffset:94.4881897;stroke-opacity:1;paint-order:normal"
       d="M 3742.7363,-1581.6877 A 1859.0933,1859.0934 13.310551 0 1 1781.5835,169.40788 1859.0933,1859.0934 13.310551 0 1 30.487887,-1791.7449 1859.0933,1859.0934 13.310551 0 1 1991.6406,-3542.8405 1859.0933,1859.0934 13.310551 0 1 3742.7363,-1581.6877 Z"
       id="path8530-1"
       inkscape:connector-curvature="0" />
  </g>
</svg>
