<?xml version="1.0" encoding="UTF-8" standalone="no"?>
<!-- Created with Inkscape (http://www.inkscape.org/) -->

<svg
   xmlns:osb="http://www.openswatchbook.org/uri/2009/osb"
   xmlns:dc="http://purl.org/dc/elements/1.1/"
   xmlns:cc="http://creativecommons.org/ns#"
   xmlns:rdf="http://www.w3.org/1999/02/22-rdf-syntax-ns#"
   xmlns:svg="http://www.w3.org/2000/svg"
   xmlns="http://www.w3.org/2000/svg"
   xmlns:xlink="http://www.w3.org/1999/xlink"
   xmlns:sodipodi="http://sodipodi.sourceforge.net/DTD/sodipodi-0.dtd"
   xmlns:inkscape="http://www.inkscape.org/namespaces/inkscape"
   width="1203.8835mm"
   height="1203.8835mm"
   viewBox="0 0 1203.8835 1203.8835"
   version="1.1"
   id="svg2772"
   inkscape:version="0.92.2 (5c3e80d, 2017-08-06)"
   sodipodi:docname="Doc-hover.svg"
   inkscape:export-filename="C:\Users\Sadegnabil\Documents\Git\Assets\Doc.png"
   inkscape:export-xdpi="96"
   inkscape:export-ydpi="96">
  <defs
     id="defs2766">
    <linearGradient
       id="linearGradient3427"
       osb:paint="solid">
      <stop
         style="stop-color:#ffff21;stop-opacity:1;"
         offset="0"
         id="stop3425" />
    </linearGradient>
    <linearGradient
       inkscape:collect="always"
       id="linearGradient3328">
      <stop
         style="stop-color:#ffff21;stop-opacity:0.96078432"
         offset="0"
         id="stop3324" />
      <stop
         style="stop-color:#ff1261;stop-opacity:0.98431373"
         offset="1"
         id="stop3326" />
    </linearGradient>
    <linearGradient
       inkscape:collect="always"
       xlink:href="#linearGradient3328"
       id="linearGradient3332"
       x1="72.61129"
       y1="136.67055"
       x2="94.702965"
       y2="136.67055"
       gradientUnits="userSpaceOnUse"
       gradientTransform="matrix(2.9115159,0,0,2.9115159,-153.61227,-260.23168)" />
    <linearGradient
       inkscape:collect="always"
       xlink:href="#linearGradient3427"
       id="linearGradient3429"
       x1="56.991928"
       y1="137.29549"
       x2="122.08219"
       y2="137.29549"
       gradientUnits="userSpaceOnUse" />
    <linearGradient
       inkscape:collect="always"
       xlink:href="#linearGradient3328"
       id="linearGradient841"
       gradientUnits="userSpaceOnUse"
       gradientTransform="matrix(2.9115159,0,0,2.9115159,-153.61227,-260.23168)"
       x1="72.61129"
       y1="136.67055"
       x2="94.702965"
       y2="136.67055" />
    <linearGradient
       inkscape:collect="always"
       xlink:href="#linearGradient3328"
       id="linearGradient843"
       gradientUnits="userSpaceOnUse"
       gradientTransform="matrix(2.9115159,0,0,2.9115159,-153.61227,-260.23168)"
       x1="72.61129"
       y1="136.67055"
       x2="94.702965"
       y2="136.67055" />
    <linearGradient
       inkscape:collect="always"
       xlink:href="#linearGradient3328"
       id="linearGradient845"
       gradientUnits="userSpaceOnUse"
       gradientTransform="matrix(2.9115159,0,0,2.9115159,-153.61227,-260.23168)"
       x1="72.61129"
       y1="136.67055"
       x2="94.702965"
       y2="136.67055" />
    <filter
       inkscape:collect="always"
       style="color-interpolation-filters:sRGB"
       id="filter858"
       x="-0.12"
       width="1.24"
       y="-0.12"
       height="1.24">
      <feGaussianBlur
         inkscape:collect="always"
         stdDeviation="48.54369"
         id="feGaussianBlur860" />
    </filter>
    <filter
       inkscape:collect="always"
       style="color-interpolation-filters:sRGB"
       id="filter862"
       x="-0.14598344"
       width="1.2919669"
       y="-0.32044351"
       height="1.640887">
      <feGaussianBlur
         inkscape:collect="always"
         stdDeviation="48.54369"
         id="feGaussianBlur864" />
    </filter>
    <filter
       inkscape:collect="always"
       style="color-interpolation-filters:sRGB"
       id="filter866"
       x="-0.35987955"
       width="1.7197591"
       y="-0.31770611"
       height="1.6354122">
      <feGaussianBlur
         inkscape:collect="always"
         stdDeviation="48.54369"
         id="feGaussianBlur868" />
    </filter>
    <filter
       inkscape:collect="always"
       style="color-interpolation-filters:sRGB"
       id="filter870"
       x="-0.20364825"
       width="1.4072965"
       y="-0.31661806"
       height="1.6332361">
      <feGaussianBlur
         inkscape:collect="always"
         stdDeviation="48.54369"
         id="feGaussianBlur872" />
    </filter>
    <filter
       inkscape:collect="always"
       style="color-interpolation-filters:sRGB"
       id="filter874"
       x="-0.18656638"
       width="1.3731328"
       y="-0.51423049"
       height="2.028461">
      <feGaussianBlur
         inkscape:collect="always"
         stdDeviation="5"
         id="feGaussianBlur876" />
    </filter>
    <filter
       inkscape:collect="always"
       style="color-interpolation-filters:sRGB"
       id="filter878"
       x="-0.12"
       width="1.24"
       y="-0.12"
       height="1.24">
      <feGaussianBlur
         inkscape:collect="always"
         stdDeviation="48.54369"
         id="feGaussianBlur880" />
    </filter>
  </defs>
  <sodipodi:namedview
     id="base"
     pagecolor="#ffffff"
     bordercolor="#666666"
     borderopacity="1.0"
     inkscape:pageopacity="0.0"
     inkscape:pageshadow="2"
     inkscape:zoom="0.087499999"
     inkscape:cx="918.46048"
     inkscape:cy="1359.6596"
     inkscape:document-units="mm"
     inkscape:current-layer="layer1"
     showgrid="false"
     inkscape:window-width="1920"
     inkscape:window-height="1057"
     inkscape:window-x="-8"
     inkscape:window-y="-8"
     inkscape:window-maximized="1" />
  <metadata
     id="metadata2769">
    <rdf:RDF>
      <cc:Work
         rdf:about="">
        <dc:format>image/svg+xml</dc:format>
        <dc:type
           rdf:resource="http://purl.org/dc/dcmitype/StillImage" />
        <dc:title />
      </cc:Work>
    </rdf:RDF>
  </metadata>
  <g
     inkscape:label="Layer 1"
     inkscape:groupmode="layer"
     id="layer1"
     transform="translate(63.484951,912.75497)">
    <path
       style="opacity:1;fill:#344b81;fill-opacity:1;stroke:#2f2f2f;stroke-width:29.12621307;stroke-linecap:round;stroke-linejoin:round;stroke-miterlimit:4;stroke-dasharray:none;stroke-dashoffset:94.4881897;stroke-opacity:1;paint-order:normal;filter:url(#filter858)"
       d="M 1023.8937,-310.81323 A 485.43692,485.43687 0 0 1 538.45682,174.62367 485.43692,485.43687 0 0 1 53.019902,-310.81323 485.43692,485.43687 0 0 1 538.45682,-796.25012 485.43692,485.43687 0 0 1 1023.8937,-310.81323 Z"
       id="path3334"
       inkscape:connector-curvature="0" />
    <path
       inkscape:connector-curvature="0"
       style="opacity:0.18000004;fill:#000000;fill-opacity:1;stroke:none;stroke-width:29.12621307;stroke-linecap:round;stroke-linejoin:round;stroke-miterlimit:4;stroke-dasharray:none;stroke-dashoffset:94.4881897;stroke-opacity:1;paint-order:normal;filter:url(#filter862)"
       d="m 303.39028,-421.24571 -57.18526,48.45794 -22.01441,172.59343 727.50812,142.522387 c 42.53578,-69.695257 66.80457,-148.993567 70.56087,-230.557077 L 342.6389,-417.807 Z"
       id="path3334-6"
       sodipodi:nodetypes="ccccccc" />
    <path
       inkscape:connector-curvature="0"
       style="opacity:0.18000004;fill:#000000;fill-opacity:1;stroke:none;stroke-width:29.12621307;stroke-linecap:round;stroke-linejoin:round;stroke-miterlimit:4;stroke-dasharray:none;stroke-dashoffset:94.4881897;stroke-opacity:1;paint-order:normal;filter:url(#filter866)"
       d="m 774.20989,-424.37831 -75.68321,90.95832 45.29428,133.82813 207.87777,141.919907 c 42.53578,-69.695257 66.80457,-148.993567 70.56087,-230.557077 L 851.81834,-408.73422 Z"
       id="path3334-6-9-8"
       sodipodi:nodetypes="ccccccc" />
    <path
       inkscape:connector-curvature="0"
       style="opacity:0.18000004;fill:#000000;fill-opacity:1;stroke:none;stroke-width:29.12621307;stroke-linecap:round;stroke-linejoin:round;stroke-miterlimit:4;stroke-dasharray:none;stroke-dashoffset:94.4881897;stroke-opacity:1;paint-order:normal;filter:url(#filter870)"
       d="m 542.118,-425.63851 -91.94704,83.82239 82.3496,147.14992 419.17817,136.994247 c 42.53578,-69.695257 66.80457,-148.993567 70.56087,-230.557077 L 580.69824,-422.17208 Z"
       id="path3334-6-9"
       sodipodi:nodetypes="ccccccc" />
    <g
       aria-label="DOC"
       style="font-style:normal;font-weight:normal;font-size:30.81354332px;line-height:1.25;font-family:sans-serif;letter-spacing:0px;word-spacing:0px;fill:url(#linearGradient3332);fill-opacity:1;stroke:#2f2f2f;stroke-width:0.76999998;stroke-miterlimit:4;stroke-dasharray:none;stroke-opacity:1;filter:url(#filter874)"
       id="text3322"
       transform="matrix(9.7087383,0,0,9.7087375,-334.91016,-1647.5779)">
      <path
         d="m 77.807412,137.70934 q 0,3.1295 -1.369157,5.61204 -1.369156,2.46749 -3.460505,3.79151 -1.745298,1.12842 -3.806556,1.45943 -2.046212,0.31596 -4.363246,0.31596 h -7.011284 v -22.40302 h 6.951102 q 2.362171,0 4.423428,0.30092 2.061258,0.30091 3.866739,1.45943 2.211714,1.41429 3.490596,3.8216 1.278883,2.39226 1.278883,5.64213 z m -5.777539,-0.0451 q 0,-2.21171 -0.76733,-3.77646 -0.752284,-1.5798 -2.33208,-2.46749 -1.143471,-0.63192 -2.407308,-0.69211 -1.248791,-0.0602 -2.994089,-0.0602 h -0.10532 v 14.02257 h 0.10532 q 1.895755,0 3.189683,-0.0602 1.308974,-0.0752 2.482537,-0.81247 1.384202,-0.87265 2.106394,-2.40731 0.722193,-1.53465 0.722193,-3.74637 z"
         style="font-style:normal;font-variant:normal;font-weight:bold;font-stretch:normal;font-family:Tahoma;-inkscape-font-specification:'Tahoma Bold';fill:url(#linearGradient841);fill-opacity:1;stroke:#2f2f2f;stroke-width:0.76999998;stroke-miterlimit:4;stroke-dasharray:none;stroke-opacity:1"
         id="path827"
         inkscape:connector-curvature="0" />
      <path
         d="m 101.54949,137.69429 q 0,5.43149 -2.903817,8.54595 -2.903815,3.11445 -7.959162,3.11445 -5.070393,0 -7.959162,-3.14455 -2.88877,-3.15959 -2.88877,-8.51585 0,-5.40139 2.88877,-8.5309 2.888769,-3.14454 7.959162,-3.14454 5.055347,0 7.959162,3.1295 2.903817,3.11445 2.903817,8.54594 z m -5.807632,-0.015 q 0,-2.00108 -0.421279,-3.40033 -0.406233,-1.41429 -1.098334,-2.31703 -0.722193,-0.91779 -1.639979,-1.30897 -0.90274,-0.40624 -1.880709,-0.40624 -1.038152,0 -1.88071,0.37615 -0.842558,0.36109 -1.624933,1.30897 -0.692101,0.87265 -1.128425,2.31703 -0.421279,1.44439 -0.421279,3.44546 0,2.06126 0.406233,3.43042 0.406233,1.35411 1.11338,2.27189 0.722192,0.93284 1.639979,1.33907 0.917786,0.39119 1.895755,0.39119 0.993014,0 1.925846,-0.42128 0.932832,-0.43633 1.609887,-1.33907 0.722193,-0.97797 1.11338,-2.27189 0.391188,-1.30898 0.391188,-3.41537 z"
         style="font-style:normal;font-variant:normal;font-weight:bold;font-stretch:normal;font-family:Tahoma;-inkscape-font-specification:'Tahoma Bold';fill:url(#linearGradient843);fill-opacity:1;stroke:#2f2f2f;stroke-width:0.76999998;stroke-miterlimit:4;stroke-dasharray:none;stroke-opacity:1"
         id="path829"
         inkscape:connector-curvature="0" />
      <path
         d="m 114.51886,149.3246 q -5.0403,0 -8.0043,-3.03923 -2.964,-3.05427 -2.964,-8.57603 0,-5.32617 2.964,-8.48576 2.97905,-3.17464 8.01935,-3.17464 1.33906,0 2.4073,0.15046 1.06825,0.15045 2.04622,0.42128 0.76733,0.22568 1.67007,0.61687 0.90274,0.39119 1.45943,0.67705 v 5.34122 h -0.57174 q -0.40623,-0.3611 -1.0231,-0.85761 -0.61688,-0.51155 -1.39925,-0.99301 -0.78238,-0.48146 -1.73025,-0.81247 -0.93284,-0.34605 -1.95594,-0.34605 -1.2187,0 -2.24181,0.39119 -1.00806,0.37614 -1.92584,1.32402 -0.84256,0.8576 -1.38421,2.31703 -0.5266,1.45943 -0.5266,3.44546 0,2.09135 0.55669,3.52069 0.55669,1.4143 1.45943,2.28694 0.87265,0.84256 1.9409,1.2187 1.08329,0.37615 2.15153,0.37615 1.11338,0 2.12144,-0.3611 1.00806,-0.37614 1.70016,-0.82751 0.75228,-0.46642 1.32402,-0.94788 0.57174,-0.48146 0.99301,-0.8576 h 0.51156 v 5.26598 q -0.61688,0.28587 -1.42934,0.66201 -0.81247,0.3611 -1.67007,0.61688 -1.0532,0.31595 -1.97099,0.48146 -0.91778,0.1655 -2.52767,0.1655 z"
         style="font-style:normal;font-variant:normal;font-weight:bold;font-stretch:normal;font-family:Tahoma;-inkscape-font-specification:'Tahoma Bold';fill:url(#linearGradient845);fill-opacity:1;stroke:#2f2f2f;stroke-width:0.76999998;stroke-miterlimit:4;stroke-dasharray:none;stroke-opacity:1"
         id="path831"
         inkscape:connector-curvature="0" />
    </g>
    <path
       style="opacity:1;fill:none;fill-opacity:1;stroke:#2f2f2f;stroke-width:29.12621307;stroke-linecap:round;stroke-linejoin:round;stroke-miterlimit:4;stroke-dasharray:none;stroke-dashoffset:94.4881897;stroke-opacity:1;paint-order:normal;filter:url(#filter878)"
       d="M 1023.8937,-310.81323 A 485.43692,485.43687 0 0 1 538.45682,174.62367 485.43692,485.43687 0 0 1 53.019902,-310.81323 485.43692,485.43687 0 0 1 538.45682,-796.25012 485.43692,485.43687 0 0 1 1023.8937,-310.81323 Z"
       id="path3334-4"
       inkscape:connector-curvature="0" />
    <g
       aria-label="Documentation
website"
       style="font-style:normal;font-weight:normal;font-size:30.77361107px;line-height:1.25;font-family:sans-serif;letter-spacing:0px;word-spacing:0px;fill:#000000;fill-opacity:1;stroke:none;stroke-width:0.76934022"
       id="text884">
      <path
         d="m 139.20524,-403.78318 q 0,14.71364 -5.98643,26.54224 -5.9143,11.82861 -15.93977,18.46417 -8.1502,5.12092 -16.5889,6.85194 -8.366572,1.73101 -21.421314,1.73101 H 54.529727 v -107.39509 h 24.450596 q 15.146387,0 23.729337,2.30802 8.65508,2.23589 14.71363,6.20281 10.3861,6.85193 16.08403,18.24779 5.69792,11.32372 5.69792,27.04711 z m -14.85788,-0.21637 q 0,-12.40561 -4.11116,-21.13282 -4.11117,-8.79933 -12.18924,-13.70387 -5.69793,-3.46203 -12.189235,-4.97667 -6.491308,-1.51464 -16.156146,-1.51464 H 68.810606 v 82.87237 h 10.890973 q 9.520586,0 16.661026,-1.51464 7.140435,-1.51464 13.054745,-5.6258 7.42894,-5.04879 11.17947,-13.41537 3.75054,-8.4387 3.75054,-20.98856 z"
         style="font-style:normal;font-variant:normal;font-weight:normal;font-stretch:normal;font-size:147.71333313px;font-family:Tahoma;-inkscape-font-specification:Tahoma;text-align:center;text-anchor:middle;fill:#ffffff;stroke-width:0.76934022"
         id="path846" />
      <path
         d="m 219.84172,-390.43993 q 0,20.33943 -9.80909,31.44678 -9.80909,11.03523 -26.10948,11.03523 -16.80528,0 -26.47012,-11.39585 -9.59271,-11.46798 -9.59271,-31.08616 0,-20.19518 9.88122,-31.37466 9.95334,-11.17947 26.18161,-11.17947 16.30039,0 26.10948,11.17947 9.80909,11.10735 9.80909,31.37466 z m -13.99238,0 q 0,-15.65127 -5.69792,-23.22446 -5.69793,-7.64532 -16.22827,-7.64532 -10.60247,0 -16.37253,7.64532 -5.69792,7.57319 -5.69792,23.22446 0,15.14639 5.69792,23.00808 5.77006,7.78957 16.37253,7.78957 10.45822,0 16.15614,-7.64532 5.77005,-7.71744 5.77005,-23.15233 z"
         style="font-style:normal;font-variant:normal;font-weight:normal;font-stretch:normal;font-size:147.71333313px;font-family:Tahoma;-inkscape-font-specification:Tahoma;text-align:center;text-anchor:middle;fill:#ffffff;stroke-width:0.76934022"
         id="path848" />
      <path
         d="m 265.78575,-348.39068 q -8.29445,0 -15.21851,-2.52439 -6.92407,-2.59653 -11.90074,-7.78957 -4.97667,-5.19305 -7.71744,-13.05475 -2.74078,-7.93382 -2.74078,-18.60841 0,-10.60248 2.81291,-18.31992 2.88502,-7.71744 7.64531,-12.98262 4.7603,-5.26517 11.82861,-8.07807 7.14044,-2.88503 15.29064,-2.88503 6.63556,0 12.76624,1.87527 6.20281,1.87527 11.03522,4.32754 v 15.21851 h -0.79338 q -1.44251,-1.22613 -3.75053,-2.8129 -2.2359,-1.58676 -5.48155,-3.24565 -2.8129,-1.44252 -6.63556,-2.5244 -3.82266,-1.08189 -7.35682,-1.08189 -10.53034,0 -16.94953,8.00595 -6.34705,7.93382 -6.34705,22.50321 0,14.28087 6.13068,22.28682 6.2028,7.93382 17.1659,7.93382 6.63556,0 12.62199,-2.74077 5.98643,-2.74078 10.60247,-7.06832 h 0.79338 v 15.21852 q -2.01951,0.93763 -5.04879,2.30802 -3.02928,1.29826 -5.48155,1.94739 -3.46203,1.00976 -6.20281,1.51464 -2.74077,0.577 -7.06831,0.577 z"
         style="font-style:normal;font-variant:normal;font-weight:normal;font-stretch:normal;font-size:147.71333313px;font-family:Tahoma;-inkscape-font-specification:Tahoma;text-align:center;text-anchor:middle;fill:#ffffff;stroke-width:0.76934022"
         id="path850" />
      <path
         d="m 364.5979,-350.19382 h -13.55962 v -8.94358 q -6.27493,5.48155 -11.90073,8.36658 -5.62581,2.8129 -12.54987,2.8129 -5.26517,0 -9.95334,-1.73102 -4.61604,-1.73101 -8.07807,-5.48155 -3.46203,-3.75053 -5.40942,-9.44846 -1.87527,-5.69792 -1.87527,-13.84812 v -52.2911 h 13.55962 v 45.87191 q 0,6.41919 0.43276,10.6746 0.50487,4.18329 2.16376,7.35682 1.65889,3.1014 4.4718,4.54391 2.88502,1.44252 8.22232,1.44252 4.97667,0 10.60247,-2.8129 5.6258,-2.8129 10.31397,-6.92407 v -60.15279 h 13.55962 z"
         style="font-style:normal;font-variant:normal;font-weight:normal;font-stretch:normal;font-size:147.71333313px;font-family:Tahoma;-inkscape-font-specification:Tahoma;text-align:center;text-anchor:middle;fill:#ffffff;stroke-width:0.76934022"
         id="path852" />
      <path
         d="m 475.81564,-350.19382 v -46.59317 q 0,-5.55367 -0.43275,-10.24184 -0.43275,-4.76029 -1.80314,-7.42894 -1.44251,-2.88503 -4.11116,-4.25542 -2.66865,-1.37038 -7.21257,-1.37038 -4.18329,0 -9.01571,2.59652 -4.76029,2.5244 -9.88121,7.35682 0.0721,1.22613 0.14425,2.95715 0.14425,1.65889 0.14425,3.96691 v 53.01235 h -13.55962 v -46.59317 q 0,-5.55367 -0.43275,-10.24184 -0.43276,-4.76029 -1.80314,-7.42894 -1.44252,-2.88503 -4.11117,-4.25542 -2.66865,-1.37038 -7.21256,-1.37038 -4.39967,0 -9.23208,2.74077 -4.83242,2.74078 -9.37634,6.99619 v 60.15279 h -13.55962 v -80.56435 h 13.55962 v 8.94358 q 5.3373,-5.3373 10.53035,-8.22232 5.26517,-2.95715 11.5401,-2.95715 7.14044,0 12.62199,3.24565 5.55367,3.24565 8.4387,10.6746 6.13068,-6.85194 11.97286,-10.3861 5.84218,-3.53415 12.69411,-3.53415 5.19305,0 9.44846,1.65889 4.25542,1.58676 7.42894,5.19304 3.24566,3.67841 4.97667,9.15996 1.80315,5.48155 1.80315,13.776 v 53.01235 z"
         style="font-style:normal;font-variant:normal;font-weight:normal;font-stretch:normal;font-size:147.71333313px;font-family:Tahoma;-inkscape-font-specification:Tahoma;text-align:center;text-anchor:middle;fill:#ffffff;stroke-width:0.76934022"
         id="path854" />
      <path
         d="m 543.39738,-348.31855 q -19.25755,0 -29.93214,-10.81885 -10.60248,-10.89097 -10.60248,-30.86978 0,-19.6903 10.31397,-31.30253 10.31397,-11.68435 26.975,-11.68435 7.50106,0 13.27112,2.16377 5.77005,2.16376 10.09759,6.77981 4.32754,4.61604 6.63556,11.32372 2.30802,6.63556 2.30802,16.3004 v 7.35682 h -55.82526 q 0,14.0645 7.06832,21.49344 7.06831,7.42894 19.54605,7.42894 4.47179,0 8.7272,-1.00976 4.32754,-1.00976 7.78957,-2.59652 3.67841,-1.65889 6.20281,-3.17353 2.5244,-1.58676 4.18329,-2.95715 h 0.79338 v 14.78576 q -2.38015,0.93763 -5.9143,2.38015 -3.53416,1.37038 -6.34706,2.16376 -3.96691,1.08189 -7.21257,1.65889 -3.17353,0.57701 -8.07807,0.57701 z m 15.86764,-51.13709 q -0.14425,-5.48155 -1.29826,-9.44846 -1.15401,-3.96691 -3.31778,-6.70768 -2.38014,-3.02928 -6.13068,-4.61604 -3.67841,-1.58677 -9.15996,-1.58677 -5.40942,0 -9.23208,1.65889 -3.75053,1.58677 -6.85194,4.68817 -3.02927,3.17353 -4.61604,7.06831 -1.58676,3.82266 -2.01952,8.94358 z"
         style="font-style:normal;font-variant:normal;font-weight:normal;font-stretch:normal;font-size:147.71333313px;font-family:Tahoma;-inkscape-font-specification:Tahoma;text-align:center;text-anchor:middle;fill:#ffffff;stroke-width:0.76934022"
         id="path856" />
      <path
         d="m 649.63848,-350.19382 h -13.55962 v -45.87191 q 0,-5.55368 -0.577,-10.31397 -0.50488,-4.83242 -2.01952,-7.71744 -1.65889,-3.02928 -4.61604,-4.47179 -2.95716,-1.51464 -8.07808,-1.51464 -5.04879,0 -10.45822,2.74077 -5.3373,2.66865 -10.45822,6.99619 v 60.15279 h -13.55962 v -80.56435 h 13.55962 v 8.94358 q 6.05856,-5.40942 11.97286,-8.29445 5.91431,-2.88502 12.47774,-2.88502 11.90073,0 18.60842,7.86169 6.70768,7.78957 6.70768,22.64746 z"
         style="font-style:normal;font-variant:normal;font-weight:normal;font-stretch:normal;font-size:147.71333313px;font-family:Tahoma;-inkscape-font-specification:Tahoma;text-align:center;text-anchor:middle;fill:#ffffff;stroke-width:0.76934022"
         id="path858" />
      <path
         d="m 693.20235,-348.60705 q -11.10735,0 -17.31016,-6.27493 -6.2028,-6.34706 -6.2028,-19.97881 v -44.64578 h -9.15996 v -11.2516 h 9.15996 v -23.15233 h 13.55962 v 23.15233 h 24.95548 v 11.2516 h -24.95548 v 38.29872 q 0,6.13068 0.21638,9.44846 0.21637,3.31778 1.65889,6.20281 1.22613,2.5244 3.96691,3.82266 2.74077,1.22613 7.42894,1.22613 3.31778,0 6.41918,-0.93763 3.10141,-1.00976 4.47179,-1.65889 h 0.79339 v 12.18924 q -3.82266,1.08188 -7.78957,1.65889 -3.89479,0.64913 -7.21257,0.64913 z"
         style="font-style:normal;font-variant:normal;font-weight:normal;font-stretch:normal;font-size:147.71333313px;font-family:Tahoma;-inkscape-font-specification:Tahoma;text-align:center;text-anchor:middle;fill:#ffffff;stroke-width:0.76934022"
         id="path860" />
      <path
         d="m 763.16427,-370.02837 v -22.35895 q -4.83242,0.43275 -12.26136,1.22613 -7.35682,0.72126 -11.90073,2.09165 -5.40943,1.65889 -8.94358,5.12092 -3.53416,3.3899 -3.53416,9.52058 0,6.92407 3.89479,10.45822 3.89478,3.53416 11.39585,3.53416 6.41918,0 11.61223,-2.74077 5.19304,-2.8129 9.73696,-6.85194 z m 0,11.2516 q -1.65889,1.22614 -4.47179,3.46203 -2.74077,2.16377 -5.3373,3.46203 -3.60628,1.87527 -6.99619,2.88503 -3.31778,1.00976 -9.37633,1.00976 -4.97667,0 -9.44846,-1.87527 -4.47179,-1.87527 -7.8617,-5.26517 -3.24565,-3.31778 -5.19304,-8.1502 -1.9474,-4.90454 -1.9474,-10.31397 0,-8.36657 3.53416,-14.20875 3.53416,-5.9143 11.17948,-9.37634 6.77981,-3.1014 16.01189,-4.25541 9.23208,-1.22614 19.90668,-1.80314 v -2.59652 q 0,-4.7603 -1.44251,-7.64532 -1.44252,-2.95715 -4.03904,-4.54392 -2.59652,-1.65889 -6.34706,-2.16377 -3.75053,-0.577 -7.71744,-0.577 -4.68817,0 -11.03523,1.44251 -6.34705,1.37039 -12.69411,4.03904 h -0.79338 v -13.776 q 3.75053,-1.08189 10.74672,-2.38015 6.99619,-1.29826 13.84812,-1.29826 8.29445,0 13.99238,1.29826 5.69793,1.29826 10.24184,4.68817 4.39967,3.31778 6.56344,8.58295 2.16377,5.26517 2.16377,12.83837 v 55.10399 h -13.4875 z"
         style="font-style:normal;font-variant:normal;font-weight:normal;font-stretch:normal;font-size:147.71333313px;font-family:Tahoma;-inkscape-font-specification:Tahoma;text-align:center;text-anchor:middle;fill:#ffffff;stroke-width:0.76934022"
         id="path862" />
      <path
         d="m 820.14351,-348.60705 q -11.10735,0 -17.31015,-6.27493 -6.20281,-6.34706 -6.20281,-19.97881 v -44.64578 h -9.15996 v -11.2516 h 9.15996 v -23.15233 h 13.55962 v 23.15233 h 24.95548 v 11.2516 h -24.95548 v 38.29872 q 0,6.13068 0.21638,9.44846 0.21638,3.31778 1.65889,6.20281 1.22614,2.5244 3.96691,3.82266 2.74077,1.22613 7.42894,1.22613 3.31778,0 6.41919,-0.93763 3.1014,-1.00976 4.47179,-1.65889 h 0.79338 v 12.18924 q -3.82266,1.08188 -7.78957,1.65889 -3.89479,0.64913 -7.21257,0.64913 z"
         style="font-style:normal;font-variant:normal;font-weight:normal;font-stretch:normal;font-size:147.71333313px;font-family:Tahoma;-inkscape-font-specification:Tahoma;text-align:center;text-anchor:middle;fill:#ffffff;stroke-width:0.76934022"
         id="path864" />
      <path
         d="m 858.94709,-350.19382 h -13.55962 v -80.56435 h 13.55962 z m 0.93763,-94.05185 h -15.43489 v -14.0645 h 15.43489 z"
         style="font-style:normal;font-variant:normal;font-weight:normal;font-stretch:normal;font-size:147.71333313px;font-family:Tahoma;-inkscape-font-specification:Tahoma;text-align:center;text-anchor:middle;fill:#ffffff;stroke-width:0.76934022"
         id="path866" />
      <path
         d="m 945.13726,-390.43993 q 0,20.33943 -9.80909,31.44678 -9.80909,11.03523 -26.10948,11.03523 -16.80528,0 -26.47012,-11.39585 -9.59271,-11.46798 -9.59271,-31.08616 0,-20.19518 9.88122,-31.37466 9.95333,-11.17947 26.18161,-11.17947 16.30039,0 26.10948,11.17947 9.80909,11.10735 9.80909,31.37466 z m -13.99238,0 q 0,-15.65127 -5.69792,-23.22446 -5.69793,-7.64532 -16.22827,-7.64532 -10.60247,0 -16.37253,7.64532 -5.69792,7.57319 -5.69792,23.22446 0,15.14639 5.69792,23.00808 5.77006,7.78957 16.37253,7.78957 10.45822,0 16.15614,-7.64532 5.77005,-7.71744 5.77005,-23.15233 z"
         style="font-style:normal;font-variant:normal;font-weight:normal;font-stretch:normal;font-size:147.71333313px;font-family:Tahoma;-inkscape-font-specification:Tahoma;text-align:center;text-anchor:middle;fill:#ffffff;stroke-width:0.76934022"
         id="path868" />
      <path
         d="m 1022.3838,-350.19382 h -13.5596 v -45.87191 q 0,-5.55368 -0.577,-10.31397 -0.5049,-4.83242 -2.0195,-7.71744 -1.6589,-3.02928 -4.616,-4.47179 -2.95719,-1.51464 -8.07812,-1.51464 -5.04879,0 -10.45822,2.74077 -5.33729,2.66865 -10.45821,6.99619 v 60.15279 h -13.55963 v -80.56435 h 13.55963 v 8.94358 q 6.05855,-5.40942 11.97285,-8.29445 5.91431,-2.88502 12.47774,-2.88502 11.90076,0 18.60846,7.86169 6.7076,7.78957 6.7076,22.64746 z"
         style="font-style:normal;font-variant:normal;font-weight:normal;font-stretch:normal;font-size:147.71333313px;font-family:Tahoma;-inkscape-font-specification:Tahoma;text-align:center;text-anchor:middle;fill:#ffffff;stroke-width:0.76934022"
         id="path870" />
      <path
         d="m 397.05444,-246.1165 -20.41156,80.56435 h -12.54986 l -19.6903,-62.10019 -19.54605,62.10019 h -12.47774 l -20.62794,-80.56435 h 14.13663 l 14.20875,62.38869 19.1133,-62.38869 h 11.17948 l 19.61817,62.38869 13.41538,-62.38869 z"
         style="font-style:normal;font-variant:normal;font-weight:normal;font-stretch:normal;font-size:147.71333313px;font-family:Tahoma;-inkscape-font-specification:Tahoma;text-align:center;text-anchor:middle;fill:#ffffff;stroke-width:0.76934022"
         id="path872" />
      <path
         d="m 444.00824,-163.67688 q -19.25755,0 -29.93214,-10.81885 -10.60247,-10.89097 -10.60247,-30.86978 0,-19.6903 10.31396,-31.30253 10.31397,-11.68436 26.975,-11.68436 7.50107,0 13.27112,2.16377 5.77005,2.16377 10.09759,6.77981 4.32754,4.61604 6.63556,11.32373 2.30802,6.63556 2.30802,16.3004 v 7.35681 h -55.82525 q 0,14.06451 7.06831,21.49345 7.06831,7.42894 19.54605,7.42894 4.47179,0 8.7272,-1.00976 4.32754,-1.00976 7.78957,-2.59652 3.67841,-1.65889 6.20281,-3.17353 2.5244,-1.58677 4.18329,-2.95715 h 0.79338 v 14.78576 q -2.38015,0.93763 -5.9143,2.38014 -3.53416,1.37039 -6.34706,2.16377 -3.96691,1.08189 -7.21257,1.65889 -3.17352,0.57701 -8.07807,0.57701 z m 15.86765,-51.13709 q -0.14426,-5.48155 -1.29827,-9.44846 -1.15401,-3.96691 -3.31778,-6.70769 -2.38014,-3.02927 -6.13068,-4.61604 -3.67841,-1.58676 -9.15995,-1.58676 -5.40943,0 -9.23209,1.65889 -3.75053,1.58676 -6.85193,4.68817 -3.02928,3.17352 -4.61605,7.06831 -1.58676,3.82266 -2.01951,8.94358 z"
         style="font-style:normal;font-variant:normal;font-weight:normal;font-stretch:normal;font-size:147.71333313px;font-family:Tahoma;-inkscape-font-specification:Tahoma;text-align:center;text-anchor:middle;fill:#ffffff;stroke-width:0.76934022"
         id="path874" />
      <path
         d="m 540.51237,-206.08677 q 0,-14.42513 -4.39966,-21.85407 -4.39967,-7.50107 -14.13663,-7.50107 -5.55367,0 -11.2516,2.59653 -5.6258,2.59652 -10.24184,6.56343 v 46.16042 q 5.12092,2.5244 9.08783,3.60628 3.96691,1.00976 8.7272,1.00976 10.3861,0 16.3004,-7.35682 5.9143,-7.35681 5.9143,-23.22446 z m 13.99238,-1.08188 q 0,19.76243 -9.59271,31.80741 -9.59271,12.04498 -24.01784,12.04498 -6.56344,0 -11.2516,-1.65889 -4.61605,-1.58676 -9.15996,-4.32753 l -0.86551,3.75053 h -12.69411 v -112.22751 h 13.55962 v 40.10186 q 5.12092,-4.61604 11.10735,-7.64532 5.98643,-3.02928 13.55962,-3.02928 13.63175,0 21.49344,10.9631 7.8617,10.89097 7.8617,30.22065 z"
         style="font-style:normal;font-variant:normal;font-weight:normal;font-stretch:normal;font-size:147.71333313px;font-family:Tahoma;-inkscape-font-specification:Tahoma;text-align:center;text-anchor:middle;fill:#ffffff;stroke-width:0.76934022"
         id="path876" />
      <path
         d="m 590.3512,-163.60476 q -8.07807,0 -15.14638,-2.16377 -6.99619,-2.16377 -11.61223,-4.61604 v -15.21851 h 0.72125 q 1.73102,1.37039 4.03904,3.02928 2.38014,1.65889 6.27493,3.46203 3.46203,1.58676 7.57319,2.8129 4.18329,1.22613 8.65508,1.22613 3.24566,0 6.92406,-0.72125 3.67841,-0.79339 5.48155,-1.9474 2.5244,-1.65889 3.60629,-3.53415 1.15401,-1.87527 1.15401,-5.6258 0,-4.83242 -2.66865,-7.28469 -2.59653,-2.45228 -9.30421,-4.11117 -2.59653,-0.64913 -6.77981,-1.51463 -4.18329,-0.86551 -7.71745,-1.87527 -9.23208,-2.66865 -13.41537,-8.22233 -4.18329,-5.6258 -4.18329,-13.55962 0,-10.89097 8.22233,-17.74291 8.22232,-6.85194 21.85407,-6.85194 6.70769,0 13.4875,1.65889 6.77981,1.65889 11.39585,4.18329 v 14.49726 h -0.72126 q -5.19304,-4.11116 -11.61223,-6.49131 -6.34705,-2.38015 -12.83836,-2.38015 -6.70769,0 -11.32373,2.8129 -4.61604,2.8129 -4.61604,8.51083 0,5.0488 2.74077,7.57319 2.74078,2.45228 8.79933,4.03904 3.02928,0.79338 6.70769,1.58676 3.75053,0.72126 7.86169,1.73102 8.94358,2.2359 13.41538,7.42894 4.54391,5.19305 4.54391,14.13663 0,5.19305 -2.09164,9.88121 -2.01952,4.61605 -5.98643,7.93383 -4.32754,3.60628 -9.80909,5.48154 -5.40942,1.87527 -13.63175,1.87527 z"
         style="font-style:normal;font-variant:normal;font-weight:normal;font-stretch:normal;font-size:147.71333313px;font-family:Tahoma;-inkscape-font-specification:Tahoma;text-align:center;text-anchor:middle;fill:#ffffff;stroke-width:0.76934022"
         id="path878" />
      <path
         d="m 648.48446,-165.55215 h -13.55962 v -80.56435 h 13.55962 z m 0.93763,-94.05185 H 633.9872 v -14.0645 h 15.43489 z"
         style="font-style:normal;font-variant:normal;font-weight:normal;font-stretch:normal;font-size:147.71333313px;font-family:Tahoma;-inkscape-font-specification:Tahoma;text-align:center;text-anchor:middle;fill:#ffffff;stroke-width:0.76934022"
         id="path880" />
      <path
         d="m 692.76962,-163.96539 q -11.10735,0 -17.31015,-6.27493 -6.20281,-6.34706 -6.20281,-19.9788 v -44.64578 h -9.15996 v -11.2516 h 9.15996 v -23.15234 h 13.55962 v 23.15234 h 24.95548 v 11.2516 h -24.95548 v 38.29872 q 0,6.13068 0.21638,9.44846 0.21638,3.31778 1.65889,6.20281 1.22614,2.52439 3.96691,3.82266 2.74078,1.22613 7.42894,1.22613 3.31778,0 6.41919,-0.93763 3.1014,-1.00976 4.47179,-1.65889 h 0.79338 v 12.18923 q -3.82266,1.08189 -7.78957,1.65889 -3.89479,0.64913 -7.21257,0.64913 z"
         style="font-style:normal;font-variant:normal;font-weight:normal;font-stretch:normal;font-size:147.71333313px;font-family:Tahoma;-inkscape-font-specification:Tahoma;text-align:center;text-anchor:middle;fill:#ffffff;stroke-width:0.76934022"
         id="path882" />
      <path
         d="m 752.70605,-163.67688 q -19.25755,0 -29.93215,-10.81885 -10.60247,-10.89097 -10.60247,-30.86978 0,-19.6903 10.31397,-31.30253 10.31397,-11.68436 26.97499,-11.68436 7.50107,0 13.27112,2.16377 5.77006,2.16377 10.0976,6.77981 4.32753,4.61604 6.63556,11.32373 2.30802,6.63556 2.30802,16.3004 v 7.35681 h -55.82526 q 0,14.06451 7.06832,21.49345 7.06831,7.42894 19.54605,7.42894 4.47179,0 8.7272,-1.00976 4.32754,-1.00976 7.78957,-2.59652 3.67841,-1.65889 6.20281,-3.17353 2.5244,-1.58677 4.18329,-2.95715 h 0.79338 v 14.78576 q -2.38015,0.93763 -5.91431,2.38014 -3.53415,1.37039 -6.34705,2.16377 -3.96691,1.08189 -7.21257,1.65889 -3.17353,0.57701 -8.07807,0.57701 z m 15.86764,-51.13709 q -0.14425,-5.48155 -1.29826,-9.44846 -1.15401,-3.96691 -3.31778,-6.70769 -2.38015,-3.02927 -6.13068,-4.61604 -3.67841,-1.58676 -9.15996,-1.58676 -5.40942,0 -9.23208,1.65889 -3.75053,1.58676 -6.85194,4.68817 -3.02927,3.17352 -4.61604,7.06831 -1.58676,3.82266 -2.01952,8.94358 z"
         style="font-style:normal;font-variant:normal;font-weight:normal;font-stretch:normal;font-size:147.71333313px;font-family:Tahoma;-inkscape-font-specification:Tahoma;text-align:center;text-anchor:middle;fill:#ffffff;stroke-width:0.76934022"
         id="path884" />
    </g>
  </g>
</svg>
