<?xml version="1.0" encoding="UTF-8" standalone="no"?>
<!-- Created with Inkscape (http://www.inkscape.org/) -->

<svg
   xmlns:dc="http://purl.org/dc/elements/1.1/"
   xmlns:cc="http://creativecommons.org/ns#"
   xmlns:rdf="http://www.w3.org/1999/02/22-rdf-syntax-ns#"
   xmlns:svg="http://www.w3.org/2000/svg"
   xmlns="http://www.w3.org/2000/svg"
   xmlns:sodipodi="http://sodipodi.sourceforge.net/DTD/sodipodi-0.dtd"
   xmlns:inkscape="http://www.inkscape.org/namespaces/inkscape"
   width="1221.7377mm"
   height="1221.7377mm"
   viewBox="0 0 1221.7377 1221.7377"
   version="1.1"
   id="svg9533"
   inkscape:version="0.92.2 (5c3e80d, 2017-08-06)"
   sodipodi:docname="GL-hover.svg"
   inkscape:export-filename="C:\Users\Sadegnabil\Documents\Git\Assets\GL.png"
   inkscape:export-xdpi="96"
   inkscape:export-ydpi="96">
  <defs
     id="defs9527">
    <filter
       inkscape:collect="always"
       style="color-interpolation-filters:sRGB"
       id="filter827"
       x="-0.12"
       width="1.24"
       y="-0.12"
       height="1.24">
      <feGaussianBlur
         inkscape:collect="always"
         stdDeviation="49.263615"
         id="feGaussianBlur829" />
    </filter>
    <filter
       inkscape:collect="always"
       style="color-interpolation-filters:sRGB"
       id="filter831"
       x="-0.14909378"
       width="1.2981876"
       y="-0.2241372"
       height="1.4482744">
      <feGaussianBlur
         inkscape:collect="always"
         stdDeviation="49.263615"
         id="feGaussianBlur833" />
    </filter>
    <filter
       inkscape:collect="always"
       style="color-interpolation-filters:sRGB"
       id="filter835"
       x="-0.2882424"
       width="1.5764848"
       y="-0.2285554"
       height="1.4571108">
      <feGaussianBlur
         inkscape:collect="always"
         stdDeviation="49.263615"
         id="feGaussianBlur837" />
    </filter>
    <filter
       inkscape:collect="always"
       style="color-interpolation-filters:sRGB"
       id="filter839"
       x="-0.12"
       width="1.24"
       y="-0.12"
       height="1.24">
      <feGaussianBlur
         inkscape:collect="always"
         stdDeviation="49.263615"
         id="feGaussianBlur841" />
    </filter>
    <filter
       inkscape:collect="always"
       style="color-interpolation-filters:sRGB"
       id="filter843"
       x="-0.15964215"
       width="1.3192843"
       y="-0.29254422"
       height="1.5850885">
      <feGaussianBlur
         inkscape:collect="always"
         stdDeviation="4.9263615"
         id="feGaussianBlur845" />
    </filter>
  </defs>
  <sodipodi:namedview
     id="base"
     pagecolor="#ffffff"
     bordercolor="#666666"
     borderopacity="1.0"
     inkscape:pageopacity="0.0"
     inkscape:pageshadow="2"
     inkscape:zoom="0.12374369"
     inkscape:cx="135.78578"
     inkscape:cy="2521.661"
     inkscape:document-units="mm"
     inkscape:current-layer="layer1"
     showgrid="false"
     inkscape:window-width="1920"
     inkscape:window-height="1057"
     inkscape:window-x="-8"
     inkscape:window-y="-8"
     inkscape:window-maximized="1" />
  <metadata
     id="metadata9530">
    <rdf:RDF>
      <cc:Work
         rdf:about="">
        <dc:format>image/svg+xml</dc:format>
        <dc:type
           rdf:resource="http://purl.org/dc/dcmitype/StillImage" />
        <dc:title />
      </cc:Work>
    </rdf:RDF>
  </metadata>
  <g
     inkscape:label="Layer 1"
     inkscape:groupmode="layer"
     id="layer1"
     transform="translate(365.73192,1090.4403)">
    <path
       style="opacity:1;fill:#344b81;fill-opacity:1;stroke:#2f2f2f;stroke-width:14.72769451;stroke-linecap:round;stroke-linejoin:round;stroke-miterlimit:4;stroke-dasharray:none;stroke-dashoffset:94.4881897;stroke-opacity:1;paint-order:normal;filter:url(#filter827)"
       d="M 737.77306,-479.57142 A 492.63616,492.63616 0 0 1 245.13685,13.064724 492.63616,492.63616 0 0 1 -247.49925,-479.57142 492.63616,492.63616 0 0 1 245.13685,-972.20758 492.63616,492.63616 0 0 1 737.77306,-479.57142 Z"
       id="path9455"
       inkscape:connector-curvature="0" />
    <path
       inkscape:connector-curvature="0"
       style="opacity:0.24299999;fill:#000000;fill-opacity:1;stroke:none;stroke-width:14.73000145;stroke-linecap:round;stroke-linejoin:round;stroke-miterlimit:4;stroke-dasharray:none;stroke-dashoffset:94.4881897;stroke-opacity:1;paint-order:normal;filter:url(#filter831)"
       d="m 107.54425,-682.00217 -169.103596,166.78727 136.5598,238.57062 541.887496,122.14347 c 58.7927,-66.82599 98.38221,-148.33201 114.56151,-235.8564 l -479.6053,-255.30364 z"
       id="path9455-1"
       sodipodi:nodetypes="ccccccc" />
    <path
       inkscape:connector-curvature="0"
       style="opacity:0.24299999;fill:#000000;fill-opacity:1;stroke:none;stroke-width:14.7300024;stroke-linecap:round;stroke-linejoin:round;stroke-miterlimit:4;stroke-dasharray:none;stroke-dashoffset:94.4881897;stroke-opacity:1;paint-order:normal;filter:url(#filter835)"
       d="m 455.12005,-671.80505 -41.37439,270.45554 -92.48111,115.838 295.6234,131.01071 c 58.7927,-66.82589 98.38221,-148.332 114.56151,-235.85641 z"
       id="path9455-1-3"
       sodipodi:nodetypes="cccccc" />
    <path
       style="opacity:1;fill:none;fill-opacity:1;stroke:#2f2f2f;stroke-width:14.72769451;stroke-linecap:round;stroke-linejoin:round;stroke-miterlimit:4;stroke-dasharray:none;stroke-dashoffset:94.4881897;stroke-opacity:1;paint-order:normal;filter:url(#filter839)"
       d="M 737.77306,-479.57142 A 492.63616,492.63616 0 0 1 245.13685,13.064724 492.63616,492.63616 0 0 1 -247.49925,-479.57142 492.63616,492.63616 0 0 1 245.13685,-972.20758 492.63616,492.63616 0 0 1 737.77306,-479.57142 Z"
       id="path9455-2"
       inkscape:connector-curvature="0" />
    <g
       id="g10162"
       transform="matrix(10,0,0,10,1235.0729,-341.62686)"
       style="filter:url(#filter843)">
      <g
         id="g10150">
        <g
           aria-label="G"
           transform="scale(0.99579347,1.0042243)"
           style="font-style:normal;font-weight:normal;font-size:52.93107224px;line-height:1.25;font-family:sans-serif;letter-spacing:0px;word-spacing:0px;fill:#ff0d74;fill-opacity:1;stroke:none;stroke-width:1.32327688"
           id="text9205">
          <path
             d="m -98.605065,3.3881748 q -2.532835,1.03381 -6.590535,2.0159295 -4.03186,0.9821195 -7.96034,0.9821195 -9.07168,0 -14.47334,-5.2207406 -5.37581,-5.2465857 -5.37581,-14.8610192 0,-9.045837 5.37581,-14.499185 5.40166,-5.453348 14.75764,-5.453348 4.83306,0 7.85695,0.930429 3.0239,0.904584 6.254553,2.481144 v 9.019993 h -0.878738 q -0.697825,-0.542751 -2.015925,-1.52487 -1.29227,-1.007965 -2.53284,-1.705787 -1.44733,-0.827048 -3.35988,-1.421488 -1.8867,-0.594441 -4.00602,-0.594441 -2.48114,0 -4.52291,0.775357 -2.04178,0.775358 -3.64418,2.377763 -1.52487,1.550715 -2.42946,3.928478 -0.87874,2.377763 -0.87874,5.530884 0,6.7456102 3.38573,9.9504212 3.38573,3.20481104 9.2526,3.20481104 0.51691,0 1.21473,-0.0258453 0.69782,-0.0258452 1.21472,-0.0775358 V -8.3455688 h -7.46927 v -7.2108252 h 16.825255 z"
             style="font-style:normal;font-variant:normal;font-weight:bold;font-stretch:normal;font-family:Tahoma;-inkscape-font-specification:'Tahoma Bold';fill:#ff0d74;fill-opacity:1;stroke-width:1.32327688"
             id="path829"
             inkscape:connector-curvature="0" />
        </g>
        <g
           aria-label="G"
           style="font-style:normal;font-weight:normal;font-size:53.40963745px;line-height:1.25;font-family:sans-serif;letter-spacing:0px;word-spacing:0px;fill:#f0e100;fill-opacity:1;stroke:none;stroke-width:1.33524108"
           id="text9205-3">
          <path
             d="m -101.31309,3.3689843 q -2.55573,1.043157 -6.65012,2.0341561 -4.06831,0.9909991 -8.03231,0.9909991 -9.1537,0 -14.6042,-5.2679427 -5.42442,-5.2940217 -5.42442,-14.9953818 0,-9.127623 5.42442,-14.630276 5.4505,-5.502654 14.89107,-5.502654 4.87676,0 7.92799,0.938842 3.05123,0.912762 6.3111,2.503576 v 9.101545 h -0.88668 q -0.70413,-0.547657 -2.03416,-1.538656 -1.30395,-1.017078 -2.55573,-1.721209 -1.46042,-0.834526 -3.39026,-1.434341 -1.90377,-0.599816 -4.04224,-0.599816 -2.50357,0 -4.56381,0.782368 -2.06023,0.782368 -3.67713,2.399261 -1.53865,1.564736 -2.45142,3.963997 -0.88668,2.399261 -0.88668,5.58089 0,6.8065989 3.41634,10.0403856 3.41634,3.23378662 9.33625,3.23378662 0.52158,0 1.22571,-0.0260789 0.70413,-0.0260789 1.22571,-0.0782368 V -8.4708474 h -7.53681 v -7.2760196 h 16.97738 z"
             style="font-style:normal;font-variant:normal;font-weight:bold;font-stretch:normal;font-family:Tahoma;-inkscape-font-specification:'Tahoma Bold';fill:#f0e100;fill-opacity:1;stroke-width:1.33524108"
             id="path832"
             inkscape:connector-curvature="0" />
        </g>
      </g>
      <g
         transform="translate(0,-0.1200853)"
         id="g10144">
        <g
           aria-label="L"
           transform="scale(0.99579347,1.0042243)"
           style="font-style:normal;font-weight:normal;font-size:52.93107224px;line-height:1.25;font-family:sans-serif;letter-spacing:0px;word-spacing:0px;fill:#ff0d74;fill-opacity:1;stroke:none;stroke-width:1.32327688"
           id="text9205-6">
          <path
             d="M -62.224825,5.6735272 H -87.915004 V -32.81005 h 9.666124 v 31.1435262 h 16.024055 z"
             style="font-style:normal;font-variant:normal;font-weight:bold;font-stretch:normal;font-family:Tahoma;-inkscape-font-specification:'Tahoma Bold';fill:#ff0d74;fill-opacity:1;stroke-width:1.32327688"
             id="path835"
             inkscape:connector-curvature="0" />
        </g>
        <g
           aria-label="L"
           style="font-style:normal;font-weight:normal;font-size:53.40964127px;line-height:1.25;font-family:sans-serif;letter-spacing:0px;word-spacing:0px;fill:#f0e100;fill-opacity:1;stroke:none;stroke-width:1.33524108"
           id="text9205-3-0">
          <path
             d="M -65.572348,5.7413893 H -91.494801 V -33.090132 h 9.753518 v 31.4251062 h 16.168935 z"
             style="font-style:normal;font-variant:normal;font-weight:bold;font-stretch:normal;font-family:Tahoma;-inkscape-font-specification:'Tahoma Bold';fill:#f0e100;fill-opacity:1;stroke-width:1.33524108"
             id="path838"
             inkscape:connector-curvature="0" />
        </g>
      </g>
    </g>
    <g
       aria-label="OpenGL
Engine"
       style="font-style:normal;font-weight:normal;font-size:36.70379257px;line-height:1.25;font-family:sans-serif;letter-spacing:0px;word-spacing:0px;fill:#000000;fill-opacity:1;stroke:none;stroke-width:0.91759485"
       id="text849">
      <path
         d="m 36.785509,-655.87867 q 7.312085,8.4304 11.355237,20.90396 4.043153,12.47355 4.043153,28.47411 0,15.57044 -3.957128,28.13002 -3.957128,12.55958 -11.441262,21.07601 -7.828231,8.94655 -18.323223,13.24778 -10.4089675,4.2152 -22.9685478,4.2152 -12.9897032,0 -23.3986702,-4.38725 -10.408967,-4.38725 -17.893101,-13.07573 -7.398109,-8.51643 -11.355237,-20.98998 -3.957128,-12.47356 -3.957128,-28.21605 0,-16.17261 3.957128,-28.38809 4.043153,-12.21548 11.441262,-20.98998 7.398109,-8.51643 17.807076,-12.90368 10.494992,-4.47328 23.3986702,-4.47328 13.0757274,0 23.5707188,4.5593 10.494992,4.5593 17.721052,12.81766 z m -2.322662,49.37807 q 0,-12.73163 -2.752785,-22.53842 -2.752784,-9.8068 -7.742207,-16.25864 -5.075447,-6.62389 -12.301507,-9.89282 -7.1400349,-3.35495 -16.0865853,-3.35495 -9.2906487,0 -16.2586347,3.26893 -6.881962,3.18291 -12.215482,9.97884 -5.075447,6.53787 -7.828232,16.43069 -2.66676,9.89282 -2.66676,22.36637 0,25.20519 10.581016,38.62501 10.581016,13.3338 28.3880927,13.3338 17.8070763,0 28.3020683,-13.3338 10.581016,-13.41982 10.581016,-38.62501 z"
         style="font-style:normal;font-variant:normal;font-weight:normal;font-stretch:normal;font-size:176.17822266px;font-family:Tahoma;-inkscape-font-specification:Tahoma;text-align:center;text-anchor:middle;fill:#ffffff;stroke-width:0.91759485"
         id="path843" />
      <path
         d="m 150.0798,-593.08077 q 0,24.00084 -11.52728,38.28091 -11.44126,14.19405 -28.99027,14.19405 -7.14003,0 -12.645601,-1.63447 -5.50557,-1.63446 -11.269213,-5.07545 v 40.25948 h -16.17261 v -131.53149 h 16.17261 v 10.06487 q 6.021717,-5.41955 13.333801,-9.03258 7.398113,-3.69905 16.086583,-3.69905 16.51671,0 25.72134,13.07572 9.29064,13.07573 9.29064,35.09801 z m -16.68875,1.80651 q 0,-16.43068 -5.2475,-25.46326 -5.2475,-9.11859 -17.03286,-9.11859 -6.88196,0 -13.333796,3.09688 -6.365815,3.01086 -12.129458,7.82823 v 54.45352 q 6.365815,3.09689 10.83909,4.2152 4.559304,1.11832 10.408964,1.11832 12.55958,0 19.52757,-9.20462 6.96799,-9.20462 6.96799,-26.92568 z"
         style="font-style:normal;font-variant:normal;font-weight:normal;font-stretch:normal;font-size:176.17822266px;font-family:Tahoma;-inkscape-font-specification:Tahoma;text-align:center;text-anchor:middle;fill:#ffffff;stroke-width:0.91759485"
         id="path845" />
      <path
         d="m 208.57648,-540.26171 q -22.96855,0 -35.70018,-12.90368 -12.6456,-12.98971 -12.6456,-36.8185 0,-23.48469 12.30151,-37.33464 12.3015,-13.93597 32.17317,-13.93597 8.94655,0 15.82851,2.58073 6.88196,2.58074 12.04343,8.08631 5.16147,5.50557 7.91426,13.50585 2.75278,7.91425 2.75278,19.44154 v 8.7745 h -66.58298 q 0,16.77478 8.43041,25.63531 8.4304,8.86052 23.31264,8.86052 5.33352,0 10.40897,-1.20434 5.16147,-1.20434 9.29065,-3.09688 4.38725,-1.97857 7.39811,-3.78508 3.01085,-1.89254 4.98942,-3.52701 h 0.94627 v 17.63503 q -2.83881,1.11832 -7.05401,2.83881 -4.2152,1.63447 -7.57016,2.58074 -4.73135,1.29036 -8.60245,1.97856 -3.78508,0.6882 -9.63475,0.6882 z m 18.9254,-60.99139 q -0.17205,-6.53786 -1.54845,-11.26921 -1.37639,-4.73135 -3.95712,-8.00028 -2.83881,-3.61303 -7.31209,-5.50557 -4.38725,-1.89254 -10.92511,-1.89254 -6.45184,0 -11.01114,1.97856 -4.47328,1.89254 -8.17233,5.59159 -3.61303,3.78508 -5.50557,8.43041 -1.89254,4.5593 -2.40869,10.66704 z"
         style="font-style:normal;font-variant:normal;font-weight:normal;font-stretch:normal;font-size:176.17822266px;font-family:Tahoma;-inkscape-font-specification:Tahoma;text-align:center;text-anchor:middle;fill:#ffffff;stroke-width:0.91759485"
         id="path847" />
      <path
         d="M 335.29061,-542.49835 H 319.118 v -54.7116 q 0,-6.62389 -0.68819,-12.30151 -0.60218,-5.76364 -2.40869,-9.20462 -1.97857,-3.61303 -5.50557,-5.33352 -3.52701,-1.80651 -9.63475,-1.80651 -6.02171,0 -12.47355,3.26893 -6.36582,3.1829 -12.47356,8.34438 v 71.74445 h -16.17261 v -96.08939 h 16.17261 v 10.66704 q 7.22606,-6.45184 14.28007,-9.89282 7.05401,-3.44098 14.88224,-3.44098 14.19405,0 22.19433,9.37667 8.00028,9.29065 8.00028,27.0117 z"
         style="font-style:normal;font-variant:normal;font-weight:normal;font-stretch:normal;font-size:176.17822266px;font-family:Tahoma;-inkscape-font-specification:Tahoma;text-align:center;text-anchor:middle;fill:#ffffff;stroke-width:0.91759485"
         id="path849" />
      <path
         d="m 413.05677,-540.00364 q -13.59187,0 -24.86108,-4.12918 -11.26921,-4.12918 -19.35552,-12.55958 -8.08631,-8.51643 -12.38753,-21.07601 -4.30123,-12.55958 -4.30123,-28.90424 0,-15.48441 4.30123,-27.69989 4.38725,-12.30151 12.47355,-20.98999 7.82824,-8.4304 19.2695,-12.9897 11.44126,-4.5593 25.03313,-4.5593 6.45184,0 12.38753,0.94627 5.9357,0.94627 11.35524,2.58074 4.30123,1.29036 9.54872,3.61303 5.33352,2.23663 8.60246,3.8711 v 20.55986 h -1.46242 q -3.18291,-2.83881 -6.62389,-5.33352 -3.35496,-2.58073 -9.54872,-5.50557 -5.16147,-2.58073 -11.87139,-4.30122 -6.70991,-1.7205 -14.45211,-1.7205 -18.49528,0 -29.93654,13.93598 -11.35524,13.93597 -11.35524,37.07657 0,12.90368 3.01086,22.53842 3.01086,9.63475 8.68848,16.34466 5.50557,6.62389 13.24778,10.15089 7.82823,3.44099 17.549,3.44099 7.22606,0 14.36609,-1.0323 7.14004,-1.03229 12.04344,-3.09688 v -33.11944 h -29.59244 v -14.96827 h 46.45324 v 55.91594 q -3.26893,1.46242 -8.7745,3.69905 -5.41954,2.23664 -10.15089,3.52701 -6.27979,1.89254 -11.35524,2.83881 -5.07545,0.94627 -12.30151,0.94627 z"
         style="font-style:normal;font-variant:normal;font-weight:normal;font-stretch:normal;font-size:176.17822266px;font-family:Tahoma;-inkscape-font-specification:Tahoma;text-align:center;text-anchor:middle;fill:#ffffff;stroke-width:0.91759485"
         id="path851" />
      <path
         d="m 551.38421,-542.49835 h -74.23916 v -128.09052 h 17.03285 v 112.9502 h 57.20631 z"
         style="font-style:normal;font-variant:normal;font-weight:normal;font-stretch:normal;font-size:176.17822266px;font-family:Tahoma;-inkscape-font-specification:Tahoma;text-align:center;text-anchor:middle;fill:#ffffff;stroke-width:0.91759485"
         id="path853" />
      <path
         d="M -7.5171201,-322.27557 V -450.36609 H 72.571711 v 15.14032 H 9.5157354 v 35.098 H 68.270484 v 15.14032 H 9.5157354 v 47.57156 H 72.571711 v 15.14032 z"
         style="font-style:normal;font-variant:normal;font-weight:normal;font-stretch:normal;font-size:176.17822266px;font-family:Tahoma;-inkscape-font-specification:Tahoma;text-align:center;text-anchor:middle;fill:#ffffff;stroke-width:0.91759485"
         id="path855" />
      <path
         d="m 165.47819,-322.27557 h -16.17261 v -54.7116 q 0,-6.62389 -0.68819,-12.30151 -0.60218,-5.76364 -2.40869,-9.20462 -1.97856,-3.61303 -5.50557,-5.33352 -3.52701,-1.80652 -9.63475,-1.80652 -6.02171,0 -12.47355,3.26894 -6.36582,3.1829 -12.47356,8.34437 v 71.74446 H 89.948661 v -96.0894 h 16.172609 v 10.66705 q 7.22606,-6.45184 14.28007,-9.89282 7.05401,-3.44099 14.88224,-3.44099 14.19405,0 22.19433,9.37668 8.00028,9.29065 8.00028,27.0117 z"
         style="font-style:normal;font-variant:normal;font-weight:normal;font-stretch:normal;font-size:176.17822266px;font-family:Tahoma;-inkscape-font-specification:Tahoma;text-align:center;text-anchor:middle;fill:#ffffff;stroke-width:0.91759485"
         id="path857" />
      <path
         d="m 246.1692,-348.341 v -52.73304 q -6.02171,-2.92483 -11.18318,-4.12917 -5.07545,-1.29037 -10.1509,-1.29037 -12.3015,0 -19.35552,9.03257 -7.05401,9.03258 -7.05401,25.89338 0,16.00057 5.33352,24.34494 5.41955,8.34438 17.46298,8.34438 6.27979,0 12.90368,-2.49471 6.70991,-2.49471 12.04343,-6.96798 z m -54.36749,41.46382 q 1.63446,0.68819 4.81737,1.80651 3.18291,1.20434 7.22606,2.23664 4.47327,1.11832 8.25835,1.80651 3.78508,0.6882 8.25836,0.6882 7.48413,0 12.6456,-1.97856 5.2475,-1.97857 8.17233,-5.50557 2.75279,-3.52701 3.87111,-8.17233 1.11831,-4.64533 1.11831,-10.58102 v -8.4304 q -6.53786,5.67762 -12.81765,8.4304 -6.27979,2.66676 -15.74249,2.66676 -16.43068,0 -26.15145,-12.21548 -9.72077,-12.21548 -9.72077,-35.09801 0,-11.95741 3.35495,-21.16203 3.35496,-9.29065 9.03258,-15.74249 5.41954,-6.19376 12.81765,-9.54872 7.39811,-3.35496 15.31237,-3.35496 7.48413,0 12.90368,1.80652 5.50556,1.72049 11.01113,4.98942 l 0.94627,-4.12918 h 15.22634 v 85.16428 q 0,24.43097 -10.66704,35.87223 -10.66704,11.44126 -32.60329,11.44126 -7.05401,0 -14.45212,-1.11832 -7.31208,-1.11832 -13.6779,-3.01086 v -16.8608 z"
         style="font-style:normal;font-variant:normal;font-weight:normal;font-stretch:normal;font-size:176.17822266px;font-family:Tahoma;-inkscape-font-specification:Tahoma;text-align:center;text-anchor:middle;fill:#ffffff;stroke-width:0.91759485"
         id="path859" />
      <path
         d="m 302.25719,-322.27557 h -16.17261 v -96.0894 h 16.17261 z m 1.11832,-112.17598 h -18.40925 v -16.77478 h 18.40925 z"
         style="font-style:normal;font-variant:normal;font-weight:normal;font-stretch:normal;font-size:176.17822266px;font-family:Tahoma;-inkscape-font-specification:Tahoma;text-align:center;text-anchor:middle;fill:#ffffff;stroke-width:0.91759485"
         id="path861" />
      <path
         d="m 401.52948,-322.27557 h -16.17261 v -54.7116 q 0,-6.62389 -0.6882,-12.30151 -0.60217,-5.76364 -2.40869,-9.20462 -1.97856,-3.61303 -5.50557,-5.33352 -3.527,-1.80652 -9.63474,-1.80652 -6.02172,0 -12.47356,3.26894 -6.36581,3.1829 -12.47355,8.34437 v 71.74446 h -16.17261 v -96.0894 h 16.17261 v 10.66705 q 7.22606,-6.45184 14.28007,-9.89282 7.05401,-3.44099 14.88224,-3.44099 14.19405,0 22.19433,9.37668 8.00028,9.29065 8.00028,27.0117 z"
         style="font-style:normal;font-variant:normal;font-weight:normal;font-stretch:normal;font-size:176.17822266px;font-family:Tahoma;-inkscape-font-specification:Tahoma;text-align:center;text-anchor:middle;fill:#ffffff;stroke-width:0.91759485"
         id="path863" />
      <path
         d="m 466.13389,-320.03894 q -22.96855,0 -35.70018,-12.90367 -12.6456,-12.98971 -12.6456,-36.8185 0,-23.4847 12.3015,-37.33464 12.30151,-13.93598 32.17317,-13.93598 8.94655,0 15.82852,2.58074 6.88196,2.58074 12.04343,8.0863 5.16147,5.50557 7.91426,13.50586 2.75278,7.91425 2.75278,19.44154 v 8.7745 h -66.58298 q 0,16.77478 8.4304,25.63531 8.43041,8.86052 23.31265,8.86052 5.33352,0 10.40897,-1.20434 5.16147,-1.20434 9.29064,-3.09688 4.38726,-1.97857 7.39811,-3.78508 3.01086,-1.89254 4.98943,-3.52701 h 0.94627 v 17.63503 q -2.83881,1.11832 -7.05402,2.83881 -4.2152,1.63446 -7.57015,2.58073 -4.73135,1.29037 -8.60246,1.97857 -3.78507,0.68819 -9.63474,0.68819 z m 18.92539,-60.99138 q -0.17205,-6.53787 -1.54844,-11.26922 -1.37639,-4.73134 -3.95713,-8.00028 -2.83881,-3.61303 -7.31208,-5.50557 -4.38725,-1.89253 -10.92512,-1.89253 -6.45183,0 -11.01113,1.97856 -4.47328,1.89254 -8.17233,5.59159 -3.61303,3.78508 -5.50557,8.43041 -1.89254,4.5593 -2.40869,10.66704 z"
         style="font-style:normal;font-variant:normal;font-weight:normal;font-stretch:normal;font-size:176.17822266px;font-family:Tahoma;-inkscape-font-specification:Tahoma;text-align:center;text-anchor:middle;fill:#ffffff;stroke-width:0.91759485"
         id="path865" />
    </g>
  </g>
</svg>
