<?xml version="1.0" encoding="UTF-8" standalone="no"?>
<!-- Created with Inkscape (http://www.inkscape.org/) -->

<svg
   xmlns:dc="http://purl.org/dc/elements/1.1/"
   xmlns:cc="http://creativecommons.org/ns#"
   xmlns:rdf="http://www.w3.org/1999/02/22-rdf-syntax-ns#"
   xmlns:svg="http://www.w3.org/2000/svg"
   xmlns="http://www.w3.org/2000/svg"
   xmlns:sodipodi="http://sodipodi.sourceforge.net/DTD/sodipodi-0.dtd"
   xmlns:inkscape="http://www.inkscape.org/namespaces/inkscape"
   width="995.75299mm"
   height="1001.9593mm"
   viewBox="0 0 995.75296 1001.9593"
   version="1.1"
   id="svg8"
   inkscape:version="0.92.2 (5c3e80d, 2017-08-06)"
   sodipodi:docname="MathLib.svg"
   inkscape:export-filename="C:\Users\Sadegnabil\Documents\Git\Assets\MathLib.png"
   inkscape:export-xdpi="96"
   inkscape:export-ydpi="96">
  <sodipodi:namedview
     id="base"
     pagecolor="#ffffff"
     bordercolor="#666666"
     borderopacity="1.0"
     inkscape:pageopacity="0.0"
     inkscape:pageshadow="2"
     inkscape:zoom="0.12374369"
     inkscape:cx="2320.1282"
     inkscape:cy="1172.3942"
     inkscape:document-units="mm"
     inkscape:current-layer="layer1"
     showgrid="false"
     inkscape:window-width="1920"
     inkscape:window-height="1057"
     inkscape:window-x="-8"
     inkscape:window-y="-8"
     inkscape:window-maximized="1"
     inkscape:snap-global="false" />
  <defs
     id="defs2">
    <marker
       inkscape:stockid="ExperimentalArrow"
       orient="auto-start-reverse"
       refY="3"
       refX="5"
       id="ExperimentalArrow"
       inkscape:isstock="true">
      <path
         id="path1497"
         d="M 10,3 0,6 V 0 Z"
         style="fill:context-stroke;stroke:#000000;stroke-opacity:1"
         inkscape:connector-curvature="0" />
    </marker>
    <marker
       inkscape:stockid="TriangleOutL"
       orient="auto"
       refY="0"
       refX="0"
       id="TriangleOutL"
       style="overflow:visible"
       inkscape:isstock="true">
      <path
         id="path1386"
         d="M 5.77,0 -2.88,5 V -5 Z"
         style="fill:#000000;fill-opacity:1;fill-rule:evenodd;stroke:#000000;stroke-width:1.00000003pt;stroke-opacity:1"
         transform="scale(0.8)"
         inkscape:connector-curvature="0" />
    </marker>
  </defs>
  <metadata
     id="metadata5">
    <rdf:RDF>
      <cc:Work
         rdf:about="">
        <dc:format>image/svg+xml</dc:format>
        <dc:type
           rdf:resource="http://purl.org/dc/dcmitype/StillImage" />
        <dc:title />
      </cc:Work>
    </rdf:RDF>
  </metadata>
  <g
     id="layer1"
     inkscape:groupmode="layer"
     inkscape:label="Layer 1"
     transform="translate(-40.379036,770.06)">
    <g
       id="g1020"
       inkscape:label="Gear20"
       transform="matrix(10.725866,0,0,10.792718,538.25552,-269.08036)"
       style="fill:#2f2f2f;fill-opacity:1">
      <path
         id="path1018"
         style="fill:#2f2f2f;fill-opacity:1;stroke:#ffffff;stroke-width:0.26458332;stroke-opacity:1"
         d="m 37.76294,-3.2058 2.76617,-0.23482 1.45083,0.13673 4.30607,1.51091 v 3.58596 l -4.30607,1.51091 -1.45083,0.13673 -2.76617,-0.23482 -0.8576,5.4147 2.70335,0.63146 1.33756,0.57836 3.62842,2.76762 -1.10812,3.41045 -4.56222,0.10631 -1.42207,-0.31829 -2.55821,-1.07813 -2.48887,4.88468 2.37591,1.43593 1.09337,0.96339 2.59559,3.7534 -2.10777,2.9011 -4.37178,-1.30869 -1.25411,-0.74215 -2.09985,-1.8159 -3.8765,3.8765 1.8159,2.09985 0.74215,1.25411 1.30869,4.37178 -2.9011,2.10777 -3.7534,-2.59559 -0.96339,-1.09337 -1.43593,-2.37591 -4.88468,2.48887 1.07813,2.55821 0.31829,1.42207 -0.10631,4.56222 -3.41045,1.10812 -2.76762,-3.62842 -0.57836,-1.33756 -0.63146,-2.70335 -5.4147,0.8576 0.23482,2.76617 -0.13673,1.45083 -1.51091,4.30607 h -3.58596 l -1.51091,-4.30607 -0.13673,-1.45083 0.23482,-2.76617 -5.4147,-0.8576 -0.63146,2.70335 -0.57836,1.33756 -2.76762,3.62842 -3.41045,-1.10812 -0.10631,-4.56222 0.31829,-1.42207 1.07813,-2.55821 -4.88468,-2.48887 -1.43593,2.37591 -0.96339,1.09337 -3.7534,2.59559 -2.9011,-2.10777 1.30869,-4.37178 0.74215,-1.25411 1.8159,-2.09985 -3.8765,-3.8765 -2.09985,1.8159 -1.25411,0.74215 -4.37178,1.30869 -2.10777,-2.9011 2.59559,-3.7534 1.09337,-0.96339 2.37591,-1.43593 -2.48887,-4.88468 -2.55821,1.07813 -1.42207,0.31829 -4.56222,-0.10631 -1.10812,-3.41045 3.62842,-2.76762 1.33756,-0.57836 2.70335,-0.63146 -0.8576,-5.4147 -2.76617,0.23482 -1.45083,-0.13673 -4.30607,-1.51091 v -3.58596 l 4.30607,-1.51091 1.45083,-0.13673 2.76617,0.23482 0.8576,-5.4147 -2.70335,-0.63146 -1.33756,-0.57836 -3.62842,-2.76762 1.10812,-3.41045 4.56222,-0.10631 1.42207,0.31829 2.55821,1.07813 2.48887,-4.88468 -2.37591,-1.43593 -1.09337,-0.96339 -2.59559,-3.7534 2.10777,-2.9011 4.37178,1.30869 1.25411,0.74215 2.09985,1.8159 3.8765,-3.8765 -1.8159,-2.09985 -0.74215,-1.25411 -1.30869,-4.37178 2.9011,-2.10777 3.7534,2.59559 0.96339,1.09337 1.43593,2.37591 4.88468,-2.48887 -1.07813,-2.55821 -0.31829,-1.42207 0.10631,-4.56222 3.41045,-1.10812 2.76762,3.62842 0.57836,1.33756 0.63146,2.70335 5.4147,-0.8576 -0.23482,-2.76617 0.13673,-1.45083 1.51091,-4.30607 h 3.58596 l 1.51091,4.30607 0.13673,1.45083 -0.23482,2.76617 5.4147,0.8576 0.63146,-2.70335 0.57836,-1.33756 2.76762,-3.62842 3.41045,1.10812 0.10631,4.56222 -0.31829,1.42207 -1.07813,2.55821 4.88468,2.48887 1.43593,-2.37591 0.96339,-1.09337 3.7534,-2.59559 2.9011,2.10777 -1.30869,4.37178 -0.74215,1.25411 -1.8159,2.09985 3.8765,3.8765 2.09985,-1.8159 1.25411,-0.74215 4.37178,-1.30869 2.10777,2.9011 -2.59559,3.7534 -1.09337,0.96339 -2.37591,1.43593 2.48887,4.88468 2.55821,-1.07813 1.42207,-0.31829 4.56222,0.10631 1.10812,3.41045 -3.62842,2.76762 -1.33756,0.57836 -2.70335,0.63146 z"
         inkscape:connector-curvature="0" />
    </g>
    <g
       id="g2738"
       transform="matrix(9.9583008,0,0,10.024765,-1270.5447,-883.99397)">
      <path
         style="opacity:1;fill:#344b81;fill-opacity:1;stroke:#ffffff;stroke-width:1.63912022;stroke-linecap:round;stroke-linejoin:round;stroke-miterlimit:4;stroke-dasharray:none;stroke-dashoffset:94.4881897;stroke-opacity:1;paint-order:normal"
         d="m 216.81705,61.318432 a 35.083866,35.051105 0 0 1 -17.54193,30.355148 35.083866,35.051105 0 0 1 -35.08387,0 l 17.54193,-30.355148 z"
         id="path1071"
         inkscape:connector-curvature="0" />
      <path
         style="opacity:1;fill:#344b81;fill-opacity:1;stroke:#ffffff;stroke-width:1.63912022;stroke-linecap:round;stroke-linejoin:round;stroke-miterlimit:4;stroke-dasharray:none;stroke-dashoffset:94.4881897;stroke-opacity:1;paint-order:normal"
         d="M 164.19125,91.67358 A 35.083866,35.051105 0 0 1 146.64932,61.318432 35.083866,35.051105 0 0 1 164.19125,30.963284 l 17.54193,30.355148 z"
         id="path1071-6"
         inkscape:connector-curvature="0" />
      <g
         aria-label="π "
         transform="matrix(0.83128749,3.3765814e-4,-4.895312e-4,1.2029531,0,0)"
         style="font-style:normal;font-weight:normal;font-size:58.67356491px;line-height:1.25;font-family:sans-serif;letter-spacing:0px;word-spacing:0px;fill:#ffffff;fill-opacity:1;stroke:none;stroke-width:1.46683919"
         id="text1111">
        <path
           d="m 206.44985,42.90403 -0.68758,7.563389 q -0.0573,0.572984 -0.0573,1.08867 0,4.068186 3.38061,4.068186 0.91677,0 2.17734,-0.71623 1.26056,-0.744879 1.83355,-0.744879 0.57298,0 0.57298,0.71623 0,1.002722 -1.89085,2.14869 -1.86219,1.117319 -3.92494,1.117319 -2.32058,0 -4.38332,-1.117319 -2.06275,-1.145968 -2.06275,-3.036815 0,-1.575706 1.06002,-11.087241 h -6.8758 q -0.20055,2.349234 -1.43246,7.391494 -1.20327,5.042259 -1.51841,5.987683 -0.28649,0.916774 -0.91678,1.403811 -0.63028,0.458387 -1.94814,0.458387 -0.83083,0 -1.83355,-0.487037 -0.97407,-0.515685 -0.97407,-1.145968 0,-0.859476 0.22919,-1.375161 0.22919,-0.515686 0.94542,-1.46111 0.74488,-0.974072 1.43246,-2.435182 0.68758,-1.489758 1.26057,-4.469275 l 0.77353,-3.867642 q -3.09412,0 -4.84172,0.802177 -1.71895,0.802178 -1.71895,2.721674 0,0.229194 -0.25784,0.401089 -0.2292,0.171895 -0.54434,0.171895 -0.97407,0 -0.97407,-1.231915 0,-2.177339 2.17734,-4.813066 2.17734,-2.635727 5.93038,-2.635727 h 20.16904 q 1.00272,0 1.31786,0.08595 0.31515,0.0573 0.31515,0.257843 -0.14325,0.630282 -0.1719,0.773528 l -0.34379,2.17734 q -0.0286,0.229193 -0.0573,0.658931 -0.0286,0.401089 -0.22919,0.515686 -0.20055,0.114597 -1.17462,0.114597 z"
           style="font-style:normal;font-variant:normal;font-weight:normal;font-stretch:normal;font-family:'Poor Richard';-inkscape-font-specification:'Poor Richard';fill:#ffffff;fill-opacity:1;stroke-width:1.46683919"
           id="path844"
           inkscape:connector-curvature="0" />
      </g>
      <path
         style="opacity:1;fill:#344b81;fill-opacity:1;stroke:#ffffff;stroke-width:1.63912022;stroke-linecap:round;stroke-linejoin:round;stroke-miterlimit:4;stroke-dasharray:none;stroke-dashoffset:94.4881897;stroke-opacity:1;paint-order:normal"
         d="m 164.19125,30.963284 a 35.083866,35.051105 0 0 1 35.08387,0 35.083866,35.051105 0 0 1 17.54193,30.355148 h -35.08387 z"
         id="path1071-68"
         inkscape:connector-curvature="0" />
      <path
         style="opacity:1;fill:none;fill-opacity:1;stroke:#ffffff;stroke-width:1.63912034;stroke-linecap:round;stroke-linejoin:round;stroke-miterlimit:4;stroke-dasharray:none;stroke-dashoffset:94.4881897;stroke-opacity:1;paint-order:normal"
         d="m 216.81705,61.318432 a 35.08387,35.051105 0 0 1 -17.54193,30.355148 35.08387,35.051105 0 0 1 -35.08387,0 l 17.54193,-30.355148 z"
         id="path1071-4"
         inkscape:connector-curvature="0" />
      <path
         style="opacity:1;fill:none;fill-opacity:1;stroke:#ffffff;stroke-width:1.63912034;stroke-linecap:round;stroke-linejoin:round;stroke-miterlimit:4;stroke-dasharray:none;stroke-dashoffset:94.4881897;stroke-opacity:1;paint-order:normal"
         d="M 164.19125,91.67358 A 35.08387,35.051105 0 0 1 146.64931,61.318432 35.08387,35.051105 0 0 1 164.19125,30.963284 l 17.54193,30.355148 z"
         id="path1071-6-7"
         inkscape:connector-curvature="0" />
      <path
         sodipodi:nodetypes="cc"
         inkscape:connector-curvature="0"
         id="path1242"
         d="m 180.52155,37.309658 20.415,-4.980069"
         style="fill:#eff3ff;fill-opacity:1;stroke:#ffffff;stroke-width:2.72670794;stroke-linecap:butt;stroke-linejoin:miter;stroke-miterlimit:4;stroke-dasharray:none;stroke-opacity:1" />
      <path
         style="opacity:1;fill:none;fill-opacity:1;stroke:#ffffff;stroke-width:1.63912034;stroke-linecap:round;stroke-linejoin:round;stroke-miterlimit:4;stroke-dasharray:none;stroke-dashoffset:94.4881897;stroke-opacity:1;paint-order:normal"
         d="m 164.19125,30.963284 a 35.08387,35.051105 0 0 1 35.08387,0 35.08387,35.051105 0 0 1 17.54193,30.355148 h -35.08387 z"
         id="path1071-68-8"
         inkscape:connector-curvature="0" />
      <g
         aria-label="n"
         transform="matrix(0.98190194,-0.19164412,0.19182178,0.98099254,0,0)"
         style="font-style:normal;font-weight:normal;font-size:29.49827003px;line-height:1.25;font-family:sans-serif;letter-spacing:0px;word-spacing:0px;fill:#eff3ff;fill-opacity:1;stroke:none;stroke-width:0.73745674"
         id="text1240">
        <path
           d="m 187.52907,92.703293 h -2.70785 v -9.160596 q 0,-1.109066 -0.12963,-2.074097 -0.12963,-0.979435 -0.47532,-1.526766 -0.36008,-0.604945 -1.03704,-0.893014 -0.67697,-0.302472 -1.75722,-0.302472 -1.10907,0 -2.31896,0.547331 -1.20989,0.547331 -2.31896,1.397135 v 12.012479 h -2.70785 V 76.614637 h 2.70785 v 1.786028 q 1.26751,-1.051452 2.62143,-1.641994 1.35393,-0.590541 2.77987,-0.590541 2.60702,0 3.97535,1.569976 1.36833,1.569976 1.36833,4.522684 z"
           style="fill:#eff3ff;fill-opacity:1;stroke-width:0.73745674"
           id="path847"
           inkscape:connector-curvature="0" />
      </g>
      <g
         aria-label="x"
         transform="scale(1.0004634,0.99953682)"
         style="font-style:normal;font-weight:normal;font-size:44.32955551px;line-height:1.25;font-family:sans-serif;letter-spacing:0px;word-spacing:0px;fill:#ffffff;fill-opacity:1;stroke:none;stroke-width:1.10823894"
         id="text2705">
        <path
           d="m 204.30229,82.741743 q -5.38968,5.324742 -9.4157,5.324742 -3.80957,0 -5.00006,-4.393994 -2.16453,4.393994 -5.84423,4.393994 -1.49353,0 -2.72731,-0.822521 -1.23378,-0.822521 -1.23378,-1.753269 0,-0.432906 1.25543,-1.493525 1.25542,-1.082264 1.49352,-1.082264 0.34633,0 0.671,0.930747 0.7143,1.948076 2.03466,1.948076 1.42859,0 2.5325,-2.164529 1.12556,-2.186174 1.73162,-5.411323 0.62772,-3.225148 0.62772,-3.982733 0,-2.316046 -1.68833,-2.316046 -2.12124,0 -5.62778,5.952455 -1.8615,3.160212 -3.76628,4.87019 h -0.49784 v -1.948076 q 1.1472,-1.125555 2.5325,-3.333375 2.68401,-4.329058 4.84854,-6.298779 2.18618,-1.991367 4.37235,-1.991367 3.61476,0 4.32906,4.220832 1.08226,-2.186175 2.25111,-3.203503 1.19049,-1.017329 2.85718,-1.017329 1.64504,0 2.48921,1.017329 0.84416,0.995683 0.84416,1.904785 0,0.303034 -1.21213,1.47188 -1.21214,1.1472 -1.68834,1.1472 -0.30303,0 -0.32468,-0.77923 -0.0216,-0.800876 -0.45455,-1.536816 -0.41126,-0.73594 -1.08226,-0.73594 -1.68833,0 -2.94376,4.480576 -1.25543,4.458929 -1.25543,6.774976 0,1.233781 0.62771,1.991366 0.62772,0.757585 1.6234,0.757585 2.87883,0 7.64079,-5.411322 z"
           style="font-style:normal;font-variant:normal;font-weight:normal;font-stretch:normal;font-family:'Script MT Bold';-inkscape-font-specification:'Script MT Bold, ';fill:#ffffff;fill-opacity:1;stroke-width:1.10823894"
           id="path850"
           inkscape:connector-curvature="0" />
      </g>
    </g>
  </g>
</svg>
