<?xml version="1.0" encoding="UTF-8" standalone="no"?>
<!-- Created with Inkscape (http://www.inkscape.org/) -->

<svg
   xmlns:dc="http://purl.org/dc/elements/1.1/"
   xmlns:cc="http://creativecommons.org/ns#"
   xmlns:rdf="http://www.w3.org/1999/02/22-rdf-syntax-ns#"
   xmlns:svg="http://www.w3.org/2000/svg"
   xmlns="http://www.w3.org/2000/svg"
   xmlns:sodipodi="http://sodipodi.sourceforge.net/DTD/sodipodi-0.dtd"
   xmlns:inkscape="http://www.inkscape.org/namespaces/inkscape"
   width="1000mm"
   height="999.99982mm"
   viewBox="0 0 999.99988 999.99972"
   version="1.1"
   id="svg8"
   inkscape:version="0.92.2 (5c3e80d, 2017-08-06)"
   sodipodi:docname="ObjLoader.svg"
   inkscape:export-filename="C:\Users\Sadegnabil\Documents\Git\Assets\ObjLoader.png"
   inkscape:export-xdpi="96"
   inkscape:export-ydpi="96">
  <sodipodi:namedview
     inkscape:snap-global="true"
     inkscape:snap-nodes="true"
     inkscape:object-nodes="true"
     inkscape:snap-others="true"
     id="base"
     pagecolor="#ffffff"
     bordercolor="#666666"
     borderopacity="1.0"
     inkscape:pageopacity="0.0"
     inkscape:pageshadow="2"
     inkscape:zoom="0.0875"
     inkscape:cx="1031.2868"
     inkscape:cy="-473.49202"
     inkscape:document-units="mm"
     inkscape:current-layer="svg8"
     showgrid="false"
     inkscape:window-width="1858"
     inkscape:window-height="1057"
     inkscape:window-x="1912"
     inkscape:window-y="-8"
     inkscape:window-maximized="1" />
  <defs
     id="defs2">
    <inkscape:perspective
       id="perspective1415"
       inkscape:persp3d-origin="104.99999 : 98.999987 : 1"
       inkscape:vp_z="209.99997 : 148.49997 : 1"
       inkscape:vp_y="0 : 999.99987 : 0"
       inkscape:vp_x="0 : 148.49997 : 1"
       sodipodi:type="inkscape:persp3d" />
  </defs>
  <metadata
     id="metadata5">
    <rdf:RDF>
      <cc:Work
         rdf:about="">
        <dc:format>image/svg+xml</dc:format>
        <dc:type
           rdf:resource="http://purl.org/dc/dcmitype/StillImage" />
        <dc:title />
      </cc:Work>
    </rdf:RDF>
  </metadata>
  <g
     id="layer1"
     inkscape:groupmode="layer"
     inkscape:label="Layer 1"
     transform="translate(-13.085468,796.66877)" />
  <path
     style="opacity:1;fill:#344b81;fill-opacity:1;stroke:#2f2f2f;stroke-width:13.63565254;stroke-linecap:round;stroke-linejoin:round;stroke-miterlimit:4;stroke-dasharray:none;stroke-dashoffset:94.4881897;stroke-opacity:1;paint-order:normal"
     inkscape:transform-center-x="-8.4967335"
     inkscape:transform-center-y="-28.142147"
     d="M 942.7936,746.74127 499.61143,992.83417 56.817826,746.09287 57.206375,253.25856 500.38853,7.1656613 943.18217,253.90701 Z"
     id="path3045"
     inkscape:connector-curvature="0" />
  <path
     inkscape:connector-curvature="0"
     style="opacity:0.28000004;fill:#000000;fill-opacity:1;stroke:none;stroke-width:13.63565254;stroke-linecap:round;stroke-linejoin:round;stroke-miterlimit:4;stroke-dasharray:none;stroke-dashoffset:94.4881897;stroke-opacity:1;paint-order:normal"
     d="M 594.55889,227.12308 252.03431,646.37625 627.32535,922.32999 942.6796,747.2169 942.88621,482.33126 Z"
     id="path3045-1" />
  <g
     id="g8880"
     inkscape:label="Great Stellated Dodecahedron:x14.20:y10.80:x0.00:x0.00:y0.00:x0.00"
     transform="matrix(1.3091257,0.00278756,-0.00289324,1.2613076,502.80692,499.07503)"
     style="opacity:1;fill:#ffff64;fill-opacity:1">
    <path
       id="path8820"
       inkscape:label="Face:15"
       style="opacity:1;fill:#ffff64;fill-opacity:1;stroke:#0a0909;stroke-width:2;stroke-linejoin:round;stroke-opacity:1"
       d="M 3.0329547,82.705059 57.575542,38.038731 -37.266003,67.996241 Z"
       inkscape:connector-curvature="0" />
    <path
       id="path8822"
       inkscape:label="Face:18"
       style="opacity:1;fill:#ffff64;fill-opacity:1;stroke:#0a0909;stroke-width:2;stroke-linejoin:round;stroke-opacity:1"
       d="M 102.47092,-44.197276 62.172144,-58.905804 57.575542,38.038731 Z"
       inkscape:connector-curvature="0" />
    <path
       id="path8824"
       inkscape:label="Face:27"
       style="opacity:1;fill:#ffff64;fill-opacity:1;stroke:#0a0909;stroke-width:2;stroke-linejoin:round;stroke-opacity:1"
       d="M -145.82751,34.2325 -37.266003,67.996241 -91.284645,-10.433536 Z"
       inkscape:connector-curvature="0" />
    <path
       id="path8826"
       inkscape:label="Face:21"
       style="opacity:1;fill:#ffff64;fill-opacity:1;stroke:#0a0909;stroke-width:2;stroke-linejoin:round;stroke-opacity:1"
       d="m 15.067043,-171.09961 -44.895587,82.236297 92.000688,29.957509 z"
       inkscape:connector-curvature="0" />
    <path
       id="path8828"
       inkscape:label="Face:24"
       style="opacity:1;fill:#ffff64;fill-opacity:1;stroke:#0a0909;stroke-width:2;stroke-linejoin:round;stroke-opacity:1"
       d="m -138.39005,-122.62705 47.105405,112.193514 61.456101,-78.429777 z"
       inkscape:connector-curvature="0" />
    <path
       id="path8830"
       inkscape:label="Face:45"
       style="opacity:1;fill:#ffff64;fill-opacity:1;stroke:#0a0909;stroke-width:2;stroke-linejoin:round;stroke-opacity:1"
       d="M 50.138102,194.8979 57.575542,38.038731 29.828544,88.863313 Z"
       inkscape:connector-curvature="0" />
    <path
       id="path8832"
       inkscape:label="Face:46"
       style="opacity:1;fill:#ffff64;fill-opacity:1;stroke:#0a0909;stroke-width:2;stroke-linejoin:round;stroke-opacity:1"
       d="M 50.138102,194.8979 29.828544,88.863313 -37.266003,67.996241 Z"
       inkscape:connector-curvature="0" />
    <path
       id="path8834"
       inkscape:label="Face:48"
       style="opacity:1;fill:#ffff64;fill-opacity:1;stroke:#0a0909;stroke-width:2;stroke-linejoin:round;stroke-opacity:1"
       d="M 211.03204,-10.433536 62.172144,-58.905804 91.284645,10.433536 Z"
       inkscape:connector-curvature="0" />
    <path
       id="path8836"
       inkscape:label="Face:49"
       style="opacity:1;fill:#ffff64;fill-opacity:1;stroke:#0a0909;stroke-width:2;stroke-linejoin:round;stroke-opacity:1"
       d="M 211.03204,-10.433536 91.284645,10.433536 57.575542,38.038731 Z"
       inkscape:connector-curvature="0" />
    <path
       id="path8838"
       inkscape:label="Face:57"
       style="opacity:1;fill:#ffff64;fill-opacity:1;stroke:#0a0909;stroke-width:2;stroke-linejoin:round;stroke-opacity:1"
       d="M -190.723,116.4688 -37.266003,67.996241 -62.172144,58.905804 Z"
       inkscape:connector-curvature="0" />
    <path
       id="path8840"
       inkscape:label="Face:58"
       style="opacity:1;fill:#ffff64;fill-opacity:1;stroke:#0a0909;stroke-width:2;stroke-linejoin:round;stroke-opacity:1"
       d="M -190.723,116.4688 -62.172144,58.905804 -91.284645,-10.433536 Z"
       inkscape:connector-curvature="0" />
    <path
       id="path8842"
       inkscape:label="Face:41"
       style="opacity:1;fill:#ffff64;fill-opacity:1;stroke:#0a0909;stroke-width:2;stroke-linejoin:round;stroke-opacity:1"
       d="M 178.68891,137.33587 91.284645,10.433536 29.828544,88.863313 Z"
       inkscape:connector-curvature="0" />
    <path
       id="path8844"
       inkscape:label="Face:51"
       style="opacity:1;fill:#ffff64;fill-opacity:1;stroke:#0a0909;stroke-width:2;stroke-linejoin:round;stroke-opacity:1"
       d="m 69.609584,-215.76497 -99.438128,126.901657 67.094547,20.867072 z"
       inkscape:connector-curvature="0" />
    <path
       id="path8846"
       inkscape:label="Face:52"
       style="opacity:1;fill:#ffff64;fill-opacity:1;stroke:#0a0909;stroke-width:2;stroke-linejoin:round;stroke-opacity:1"
       d="m 69.609584,-215.76497 -32.343581,147.768729 24.906141,9.090437 z"
       inkscape:connector-curvature="0" />
    <path
       id="path8848"
       inkscape:label="Face:38"
       style="opacity:1;fill:#ffff64;fill-opacity:1;stroke:#0a0909;stroke-width:2;stroke-linejoin:round;stroke-opacity:1"
       d="M -69.609584,215.76497 29.828544,88.863313 -62.172144,58.905804 Z"
       inkscape:connector-curvature="0" />
    <path
       id="path8850"
       inkscape:label="Face:54"
       style="opacity:1;fill:#ffff64;fill-opacity:1;stroke:#0a0909;stroke-width:2;stroke-linejoin:round;stroke-opacity:1"
       d="m -178.68891,-137.33587 87.404265,126.902334 33.709103,-27.605195 z"
       inkscape:connector-curvature="0" />
    <path
       id="path8852"
       inkscape:label="Face:55"
       style="opacity:1;fill:#ffff64;fill-opacity:1;stroke:#0a0909;stroke-width:2;stroke-linejoin:round;stroke-opacity:1"
       d="m -178.68891,-137.33587 121.113368,99.297139 27.746998,-50.824582 z"
       inkscape:connector-curvature="0" />
    <path
       id="path8854"
       inkscape:label="Face:44"
       style="opacity:1;fill:#ffff64;fill-opacity:1;stroke:#0a0909;stroke-width:2;stroke-linejoin:round;stroke-opacity:1"
       d="M 190.723,-116.4688 37.266003,-67.996241 91.284645,10.433536 Z"
       inkscape:connector-curvature="0" />
    <path
       id="path8856"
       inkscape:label="Face:35"
       style="opacity:1;fill:#ffff64;fill-opacity:1;stroke:#0a0909;stroke-width:2;stroke-linejoin:round;stroke-opacity:1"
       d="m -211.03204,10.433536 148.859896,48.472268 4.596602,-96.944535 z"
       inkscape:connector-curvature="0" />
    <path
       id="path8858"
       inkscape:label="Face:32"
       style="opacity:1;fill:#ffff64;fill-opacity:1;stroke:#0a0909;stroke-width:2;stroke-linejoin:round;stroke-opacity:1"
       d="m -50.138102,-194.8979 -7.43744,156.859169 94.841545,-29.95751 z"
       inkscape:connector-curvature="0" />
    <path
       id="path8860"
       inkscape:label="Face:9"
       style="opacity:1;fill:#ffff64;fill-opacity:1;stroke:#0a0909;stroke-width:2;stroke-linejoin:round;stroke-opacity:1"
       d="M 138.39005,122.62705 17.276516,23.33013 29.828544,88.863313 Z"
       inkscape:connector-curvature="0" />
    <path
       id="path8862"
       inkscape:label="Face:11"
       style="opacity:1;fill:#ffff64;fill-opacity:1;stroke:#0a0909;stroke-width:2;stroke-linejoin:round;stroke-opacity:1"
       d="M 138.39005,122.62705 91.284645,10.433536 17.276516,23.33013 Z"
       inkscape:connector-curvature="0" />
    <path
       id="path8864"
       inkscape:label="Face:6"
       style="opacity:1;fill:#ffff64;fill-opacity:1;stroke:#0a0909;stroke-width:2;stroke-linejoin:round;stroke-opacity:1"
       d="M -15.067043,171.09961 17.276516,23.33013 -62.172144,58.905804 Z"
       inkscape:connector-curvature="0" />
    <path
       id="path8866"
       inkscape:label="Face:8"
       style="opacity:1;fill:#ffff64;fill-opacity:1;stroke:#0a0909;stroke-width:2;stroke-linejoin:round;stroke-opacity:1"
       d="M -15.067043,171.09961 29.828544,88.863313 17.276516,23.33013 Z"
       inkscape:connector-curvature="0" />
    <path
       id="path8868"
       inkscape:label="Face:12"
       style="opacity:1;fill:#ffff64;fill-opacity:1;stroke:#0a0909;stroke-width:2;stroke-linejoin:round;stroke-opacity:1"
       d="M 145.82751,-34.2325 17.276516,23.33013 91.284645,10.433536 Z"
       inkscape:connector-curvature="0" />
    <path
       id="path8870"
       inkscape:label="Face:14"
       style="opacity:1;fill:#ffff64;fill-opacity:1;stroke:#0a0909;stroke-width:2;stroke-linejoin:round;stroke-opacity:1"
       d="M 145.82751,-34.2325 37.266003,-67.996241 17.276516,23.33013 Z"
       inkscape:connector-curvature="0" />
    <path
       id="path8872"
       inkscape:label="Face:3"
       style="opacity:1;fill:#ffff64;fill-opacity:1;stroke:#0a0909;stroke-width:2;stroke-linejoin:round;stroke-opacity:1"
       d="M -102.47092,44.197276 17.276516,23.33013 -57.575542,-38.038731 Z"
       inkscape:connector-curvature="0" />
    <path
       id="path8874"
       inkscape:label="Face:5"
       style="opacity:1;fill:#ffff64;fill-opacity:1;stroke:#0a0909;stroke-width:2;stroke-linejoin:round;stroke-opacity:1"
       d="M -102.47092,44.197276 -62.172144,58.905804 17.276516,23.33013 Z"
       inkscape:connector-curvature="0" />
    <path
       id="path8876"
       inkscape:label="Face:0"
       style="opacity:1;fill:#ffff64;fill-opacity:1;stroke:#0a0909;stroke-width:2;stroke-linejoin:round;stroke-opacity:1"
       d="M -3.0329547,-82.705059 17.276516,23.33013 37.266003,-67.996241 Z"
       inkscape:connector-curvature="0" />
    <path
       id="path8878"
       inkscape:label="Face:2"
       style="opacity:1;fill:#ffff64;fill-opacity:1;stroke:#0a0909;stroke-width:2;stroke-linejoin:round;stroke-opacity:1"
       d="M -3.0329547,-82.705059 -57.575542,-38.038731 17.276516,23.33013 Z"
       inkscape:connector-curvature="0" />
  </g>
  <path
     style="opacity:1;fill:none;fill-opacity:1;stroke:#2f2f2f;stroke-width:13.63565254;stroke-linecap:round;stroke-linejoin:round;stroke-miterlimit:4;stroke-dasharray:none;stroke-dashoffset:94.4881897;stroke-opacity:1;paint-order:normal"
     inkscape:transform-center-x="-8.4967335"
     inkscape:transform-center-y="-28.142147"
     d="M 942.7936,746.74127 499.61143,992.83417 56.817826,746.09287 57.206375,253.25856 500.38853,7.1656613 943.18217,253.90701 Z"
     id="path3045-0"
     inkscape:connector-curvature="0" />
</svg>
