<?xml version="1.0" encoding="UTF-8" standalone="no"?>
<!-- Created with Inkscape (http://www.inkscape.org/) -->

<svg
   xmlns:dc="http://purl.org/dc/elements/1.1/"
   xmlns:cc="http://creativecommons.org/ns#"
   xmlns:rdf="http://www.w3.org/1999/02/22-rdf-syntax-ns#"
   xmlns:svg="http://www.w3.org/2000/svg"
   xmlns="http://www.w3.org/2000/svg"
   xmlns:sodipodi="http://sodipodi.sourceforge.net/DTD/sodipodi-0.dtd"
   xmlns:inkscape="http://www.inkscape.org/namespaces/inkscape"
   width="1369.1493mm"
   height="1369.1514mm"
   viewBox="0 0 1369.1493 1369.1513"
   version="1.1"
   id="svg10169"
   sodipodi:docname="Profiler-hover.svg"
   inkscape:version="0.92.2 (5c3e80d, 2017-08-06)"
   inkscape:export-filename="C:\Users\Sadegnabil\Documents\Git\Assets\Profiler.png"
   inkscape:export-xdpi="96"
   inkscape:export-ydpi="96"
   style="enable-background:new">
  <defs
     id="defs10163">
    <inkscape:path-effect
       effect="skeletal"
       id="path-effect16933"
       is_visible="true"
       pattern="M 0,5 C 0,2.24 2.24,0 5,0 7.76,0 10,2.24 10,5 10,7.76 7.76,10 5,10 2.24,10 0,7.76 0,5 Z"
       copytype="single_stretched"
       prop_scale="0.26458333"
       scale_y_rel="false"
       spacing="0"
       normal_offset="0"
       tang_offset="0"
       prop_units="false"
       vertical_pattern="false"
       fuse_tolerance="0" />
    <inkscape:path-effect
       effect="skeletal"
       id="path-effect16929"
       is_visible="true"
       pattern="M 0,5 C 0,2.24 2.24,0 5,0 7.76,0 10,2.24 10,5 10,7.76 7.76,10 5,10 2.24,10 0,7.76 0,5 Z"
       copytype="single_stretched"
       prop_scale="0.26458333"
       scale_y_rel="false"
       spacing="0"
       normal_offset="0"
       tang_offset="0"
       prop_units="false"
       vertical_pattern="false"
       fuse_tolerance="0" />
    <filter
       style="color-interpolation-filters:sRGB"
       inkscape:label="Drop Shadow"
       id="filter17460">
      <feFlood
         flood-opacity="0.498039"
         flood-color="rgb(0,0,0)"
         result="flood"
         id="feFlood17450" />
      <feComposite
         in="flood"
         in2="SourceGraphic"
         operator="out"
         result="composite1"
         id="feComposite17452" />
      <feGaussianBlur
         in="composite1"
         stdDeviation="1.5625"
         result="blur"
         id="feGaussianBlur17454" />
      <feOffset
         dx="0"
         dy="0"
         result="offset"
         id="feOffset17456" />
      <feComposite
         in="offset"
         in2="SourceGraphic"
         operator="atop"
         result="composite2"
         id="feComposite17458" />
    </filter>
    <filter
       inkscape:collect="always"
       style="color-interpolation-filters:sRGB"
       id="filter834"
       x="-0.12000009"
       width="1.2400002"
       y="-0.11999991"
       height="1.2399998">
      <feGaussianBlur
         inkscape:collect="always"
         stdDeviation="49.481392"
         id="feGaussianBlur836" />
    </filter>
    <filter
       inkscape:collect="always"
       style="color-interpolation-filters:sRGB"
       id="filter854"
       x="-0.08549998"
       width="1.171"
       y="-0.2011764"
       height="1.4023528">
      <feGaussianBlur
         inkscape:collect="always"
         stdDeviation="2.2631758"
         id="feGaussianBlur856" />
    </filter>
    <filter
       inkscape:collect="always"
       style="color-interpolation-filters:sRGB"
       id="filter862"
       x="-0.079698712"
       width="1.1593974"
       y="-0.21553123"
       height="1.4310625">
      <feGaussianBlur
         inkscape:collect="always"
         stdDeviation="2.3320371"
         id="feGaussianBlur864" />
    </filter>
    <filter
       inkscape:collect="always"
       style="color-interpolation-filters:sRGB"
       id="filter1598"
       x="-0.56760001"
       width="2.1352"
       y="-0.56759995"
       height="2.1351998">
      <feGaussianBlur
         inkscape:collect="always"
         stdDeviation="19.871214"
         id="feGaussianBlur1600" />
      <feBlend
         inkscape:collect="always"
         mode="overlay"
         in2="BackgroundImage"
         id="feBlend1602" />
    </filter>
  </defs>
  <sodipodi:namedview
     id="base"
     pagecolor="#ffffff"
     bordercolor="#666666"
     borderopacity="1.0"
     inkscape:pageopacity="0.0"
     inkscape:pageshadow="2"
     inkscape:zoom="0.12374369"
     inkscape:cx="2352.0569"
     inkscape:cy="2250.8908"
     inkscape:document-units="mm"
     inkscape:current-layer="layer1"
     showgrid="false"
     inkscape:window-width="1920"
     inkscape:window-height="1057"
     inkscape:window-x="-8"
     inkscape:window-y="-8"
     inkscape:window-maximized="1">
    <inkscape:grid
       type="xygrid"
       id="grid15500"
       originx="164.5242"
       originy="108.2366" />
  </sodipodi:namedview>
  <metadata
     id="metadata10166">
    <rdf:RDF>
      <cc:Work
         rdf:about="">
        <dc:format>image/svg+xml</dc:format>
        <dc:type
           rdf:resource="http://purl.org/dc/dcmitype/StillImage" />
      </cc:Work>
    </rdf:RDF>
  </metadata>
  <g
     inkscape:label="Layer 1"
     inkscape:groupmode="layer"
     id="layer1"
     transform="translate(164.52419,963.9147)">
    <path
       style="opacity:1;fill:#344b81;fill-opacity:1;stroke:#2f2f2f;stroke-width:10.37143326;stroke-linecap:butt;stroke-linejoin:miter;stroke-miterlimit:4;stroke-dasharray:none;stroke-dashoffset:94.4881897;stroke-opacity:1;paint-order:fill markers stroke;filter:url(#filter834)"
       d="m 407.77357,-778.47956 c -17.69499,0.15144 -32.42535,28.6712 -34.31474,47.44755 -1.59916,15.89194 7.83758,44.47006 6.21143,67.127 H 235.23759 c -54.35644,0 -98.11703,43.76065 -98.11703,98.11718 v 144.41712 c -22.68719,1.69402 -51.383179,-7.79937 -67.320149,-6.19568 -18.776333,1.88938 -47.295954,16.61976 -47.447488,34.31483 -0.152854,17.87744 27.867326,32.9243 47.337063,35.26519 20.460645,2.46007 44.835804,-4.31944 67.430574,-6.14041 v 55.52442 c -22.68719,1.69402 -51.383179,-7.79937 -67.320149,-6.19568 -18.776333,1.88938 -47.295954,16.61977 -47.447488,34.31476 -0.152854,17.87751 27.867326,32.92034 47.337063,35.26131 20.460645,2.45998 44.835804,-4.31944 67.430574,-6.14049 v 55.52442 c -22.68719,1.69402 -51.383179,-7.79937 -67.320149,-6.19561 -18.776333,1.88931 -47.295954,16.61969 -47.447488,34.31476 -0.152854,17.87751 27.867326,32.9243 47.337063,35.26519 20.460645,2.46007 44.835804,-4.31944 67.430574,-6.1404 V 1.1456556 c 0,54.3565384 43.76059,98.1171834 98.11703,98.1171834 h 139.49902 c -2.12369,21.770551 -8.25144,44.956051 -5.89594,64.547801 2.34091,19.46969 17.38379,47.4898 35.26125,47.33712 17.695,-0.15159 32.42532,-28.67117 34.31473,-47.44751 1.5361,-15.2654 -7.13603,-42.25173 -6.38102,-64.437411 h 55.46517 c -2.12367,21.770551 -8.25144,44.956051 -5.89594,64.547801 2.34094,19.46969 17.38775,47.4898 35.26521,47.33712 17.69498,-0.15159 32.42531,-28.67117 34.31473,-47.44751 1.53608,-15.2654 -7.13605,-42.25173 -6.38103,-64.437411 h 55.46518 c -2.12366,21.770551 -8.25144,44.956051 -5.89593,64.547801 2.34093,19.46969 17.38378,47.4898 35.26124,47.33712 17.69498,-0.15159 32.42528,-28.67117 34.31474,-47.44751 1.53611,-15.2654 -7.13213,-42.25173 -6.37707,-64.437411 h 144.59829 c 54.35644,0 98.11704,-43.760645 98.11704,-98.1171834 V -138.32987 c 21.71469,2.14079 44.82048,8.22484 64.35444,5.87617 19.46973,-2.34089 47.4897,-17.38768 47.3371,-35.26519 -0.1515,-17.69507 -28.67122,-32.42545 -47.44752,-34.31476 -15.22136,-1.5317 -42.0949,7.0837 -64.24402,6.38498 v -55.44955 c 21.71469,2.14086 44.82048,8.22483 64.35444,5.87625 19.46973,-2.34097 47.4897,-17.3838 47.3371,-35.26131 -0.1515,-17.69499 -28.67122,-32.42538 -47.44752,-34.31476 -15.22136,-1.5317 -42.0949,7.08378 -64.24402,6.38498 v -55.44948 c 21.71469,2.14079 44.82048,8.22484 64.35444,5.87617 19.46973,-2.34089 47.4897,-17.38775 47.3371,-35.26519 -0.1515,-17.69507 -28.67122,-32.42545 -47.44752,-34.31483 -15.22136,-1.53171 -42.0949,7.08377 -64.24402,6.38497 v -144.60641 c 0,-54.35653 -43.7606,-98.11718 -98.11704,-98.11718 h -139.7238 c 1.84394,-22.54056 8.57768,-46.83498 6.12466,-67.23741 -2.34092,-19.46978 -17.38769,-47.49001 -35.26517,-47.33714 -17.695,0.15144 -32.42533,28.6712 -34.31474,47.44755 -1.59915,15.89194 7.83761,44.47006 6.21143,67.127 h -55.52433 c 1.84394,-22.54056 8.57767,-46.83498 6.12469,-67.23741 -2.34094,-19.46978 -17.3838,-47.49001 -35.26124,-47.33714 -17.695,0.15144 -32.42535,28.6712 -34.31476,47.44755 -1.59913,15.89194 7.83366,44.47006 6.20749,67.127 h -55.52431 c 1.84392,-22.54059 8.58158,-46.83494 6.1286,-67.23741 -2.34093,-19.46978 -17.38771,-47.49001 -35.26517,-47.33714 z"
       id="rect15495"
       inkscape:connector-curvature="0" />
    <path
       style="opacity:1;fill:#545c6f;fill-opacity:1;stroke:none;stroke-width:3.1099999;stroke-linecap:butt;stroke-linejoin:miter;stroke-miterlimit:4;stroke-dasharray:none;stroke-dashoffset:94.4881897;stroke-opacity:1;paint-order:fill markers stroke;filter:url(#filter1598)"
       d="m 83.060268,109.3736 c 23.274102,0 42.011022,18.73691 42.011022,42.01102 v 0 c 0,23.27411 -18.73692,42.01103 -42.011022,42.01103 -23.274105,0 -42.01102,-18.73692 -42.01102,-42.01103 v 0 c 0,-23.27411 18.736915,-42.01102 42.01102,-42.01102 z"
       id="rect15476-4"
       inkscape:connector-curvature="0"
       transform="matrix(7.6316597,0,0,7.6316713,-113.83727,-1434.6567)" />
    <g
       aria-label="GPU"
       transform="matrix(7.1067859,0,0,8.1953108,-113.83727,-1434.6567)"
       style="font-style:normal;font-weight:normal;font-size:34.33325958px;line-height:1.25;font-family:sans-serif;letter-spacing:0px;word-spacing:0px;fill:#cb0048;fill-opacity:1;stroke:none;stroke-width:0.85833144;filter:url(#filter862)"
       id="text16952-0">
      <path
         d="m 77.924854,151.59959 q -1.642901,0.67057 -4.274894,1.30761 -2.615228,0.63704 -5.1634,0.63704 -5.884265,0 -9.388001,-3.38638 -3.486971,-3.40315 -3.486971,-9.63947 0,-5.8675 3.486971,-9.40476 3.503736,-3.53727 9.572408,-3.53727 3.134922,0 5.096343,0.60352 1.961422,0.58675 4.056958,1.60937 v 5.85074 h -0.569986 q -0.452636,-0.35205 -1.307614,-0.9891 -0.838215,-0.6538 -1.6429,-1.10644 -0.938801,-0.53646 -2.179358,-0.92204 -1.223793,-0.38557 -2.598464,-0.38557 -1.609372,0 -2.93375,0.50292 -1.324379,0.50293 -2.363765,1.54232 -0.989093,1.00586 -1.575843,2.54817 -0.569986,1.54231 -0.569986,3.58756 0,4.37548 2.196122,6.45425 2.196122,2.07877 6.001615,2.07877 0.335285,0 0.787921,-0.0168 0.452636,-0.0168 0.787922,-0.0503 v -4.89517 h -4.844879 v -4.67724 h 10.913551 z"
         style="font-style:normal;font-variant:normal;font-weight:bold;font-stretch:normal;font-family:Tahoma;-inkscape-font-specification:'Tahoma Bold';fill:#cb0048;fill-opacity:1;stroke-width:0.85833144"
         id="path828"
         inkscape:connector-curvature="0" />
      <path
         d="m 101.89778,135.94174 q 0,1.74349 -0.55322,3.31933 -0.55322,1.57584 -1.592606,2.63199 -0.637043,0.65381 -1.4082,1.20703 -0.754393,0.55323 -1.676429,0.9388 -0.922035,0.38558 -2.011714,0.60352 -1.072914,0.21793 -2.414057,0.21793 h -3.285801 v 8.16421 H 82.68591 v -24.96202 h 9.689758 q 2.162593,0 3.721672,0.40234 1.575843,0.38558 2.849928,1.24056 1.408202,0.9388 2.179362,2.51464 0.77115,1.55908 0.77115,3.72167 z m -6.437483,0.15088 q 0,-1.05615 -0.502929,-1.81054 -0.502929,-0.77116 -1.207029,-1.05615 -0.888507,-0.38558 -1.709957,-0.43587 -0.804686,-0.0671 -2.196121,-0.0671 h -0.888508 v 7.47687 h 0.435872 q 0.888507,0 1.676429,-0.0168 0.787921,-0.0168 1.374671,-0.11735 0.502929,-0.0838 1.05615,-0.31852 0.569986,-0.25147 0.871743,-0.55323 0.637043,-0.62027 0.854979,-1.29085 0.2347,-0.67057 0.2347,-1.81054 z"
         style="font-style:normal;font-variant:normal;font-weight:bold;font-stretch:normal;font-family:Tahoma;-inkscape-font-specification:'Tahoma Bold';fill:#cb0048;fill-opacity:1;stroke-width:0.85833144"
         id="path830"
         inkscape:connector-curvature="0" />
      <path
         d="m 115.37627,153.54424 q -5.02929,0 -7.7451,-2.43082 -2.69905,-2.43082 -2.69905,-7.10805 v -15.94284 h 6.26984 v 15.57402 q 0,2.59847 0.97233,3.87255 0.98909,1.27409 3.20198,1.27409 2.16259,0 3.16845,-1.2238 1.02262,-1.22379 1.02262,-3.92284 v -15.57402 h 6.26984 v 15.92607 q 0,4.61018 -2.64875,7.09129 -2.632,2.46435 -7.81216,2.46435 z"
         style="font-style:normal;font-variant:normal;font-weight:bold;font-stretch:normal;font-family:Tahoma;-inkscape-font-specification:'Tahoma Bold';fill:#cb0048;fill-opacity:1;stroke-width:0.85833144"
         id="path832"
         inkscape:connector-curvature="0" />
    </g>
    <g
       aria-label="GPU"
       style="font-style:normal;font-weight:normal;font-size:35.74309158px;line-height:1.25;font-family:sans-serif;letter-spacing:0px;word-spacing:0px;fill:#e1d62b;fill-opacity:1;stroke:none;stroke-width:0.89357728;filter:url(#filter854)"
       id="text16952"
       transform="matrix(7.6316597,0,0,7.6316713,-113.83727,-1434.6567)">
      <path
         d="m 63.274908,164.2824 q -2.757523,0 -5.043825,-0.83773 -2.286301,-0.83772 -3.926853,-2.54809 -1.640552,-1.72781 -2.513186,-4.2759 -0.872634,-2.5481 -0.872634,-5.8641 0,-3.14149 0.872634,-5.61977 0.890087,-2.49573 2.530639,-4.25845 1.588194,-1.71037 3.9094,-2.63536 2.321207,-0.92499 5.078731,-0.92499 1.308951,0 2.513186,0.19198 1.204235,0.19198 2.303754,0.52358 0.872634,0.26179 1.937247,0.73301 1.082067,0.45377 1.745269,0.78537 v 4.17119 h -0.296696 q -0.645749,-0.57593 -1.343857,-1.08206 -0.680654,-0.52358 -1.937247,-1.11697 -1.047161,-0.52358 -2.40847,-0.87264 -1.361309,-0.34905 -2.932051,-0.34905 -3.752326,0 -6.073533,2.82733 -2.303754,2.82734 -2.303754,7.52211 0,2.6179 0.610844,4.5726 0.610844,1.9547 1.762721,3.31601 1.116972,1.34386 2.687713,2.05942 1.588194,0.6981 3.560347,0.6981 1.466025,0 2.914598,-0.20943 1.448572,-0.20943 2.443375,-0.62829 v -6.71929 h -6.003722 v -3.03676 h 9.424448 v 11.34424 q -0.663202,0.2967 -1.780174,0.75047 -1.099519,0.45377 -2.059416,0.71556 -1.274046,0.38395 -2.303754,0.57593 -1.029708,0.19198 -2.495734,0.19198 z"
         style="font-style:normal;font-variant:normal;font-weight:normal;font-stretch:normal;font-family:Tahoma;-inkscape-font-specification:Tahoma;fill:#e1d62b;fill-opacity:1;stroke-width:0.89357728"
         id="path835"
         inkscape:connector-curvature="0" />
      <path
         d="m 92.682677,145.62549 q 0,1.69291 -0.610844,3.21129 -0.593391,1.50093 -1.658004,2.56554 -1.343857,1.32641 -3.158936,2.00706 -1.815079,0.68066 -4.590055,0.68066 h -2.93205 v 9.68624 h -3.455631 v -25.98705 h 6.527303 q 2.303754,0 3.926853,0.38396 1.623099,0.38396 2.86224,1.23914 1.448572,0.99481 2.268848,2.53064 0.820276,1.51838 0.820276,3.68252 z m -3.595252,0.0873 q 0,-1.34386 -0.471222,-2.33866 -0.45377,-0.9948 -1.396215,-1.6231 -0.820276,-0.54103 -1.919795,-0.76792 -1.082066,-0.22688 -2.705166,-0.22688 h -2.862239 v 10.38434 H 82.0889 q 2.094321,0 3.38582,-0.3316 1.291498,-0.34905 2.14668,-1.22168 0.767918,-0.78538 1.116971,-1.71037 0.349054,-0.92499 0.349054,-2.16413 z"
         style="font-style:normal;font-variant:normal;font-weight:normal;font-stretch:normal;font-family:Tahoma;-inkscape-font-specification:Tahoma;fill:#e1d62b;fill-opacity:1;stroke-width:0.89357728"
         id="path837"
         inkscape:connector-curvature="0" />
      <path
         d="m 105.03918,164.31731 q -2.28631,0 -3.99667,-0.59339 -1.710361,-0.61085 -2.914596,-1.79763 -1.361309,-1.36131 -1.919795,-3.2462 -0.558486,-1.90234 -0.558486,-4.67732 v -16.21354 h 3.455631 v 16.21354 q 0,1.79763 0.226885,3.03677 0.226885,1.22169 0.890091,2.19904 0.6981,1.04716 1.88489,1.58819 1.20423,0.54104 2.93205,0.54104 1.62309,0 2.87969,-0.54104 1.25659,-0.54103 1.9547,-1.58819 0.64575,-0.9948 0.87263,-2.19904 0.24434,-1.20423 0.24434,-2.9495 v -16.30081 h 3.45563 v 16.21354 q 0,2.70517 -0.55848,4.64242 -0.54104,1.93724 -1.9198,3.2811 -1.23914,1.20424 -2.89714,1.79763 -1.64056,0.59339 -4.03157,0.59339 z"
         style="font-style:normal;font-variant:normal;font-weight:normal;font-stretch:normal;font-family:Tahoma;-inkscape-font-specification:Tahoma;fill:#e1d62b;fill-opacity:1;stroke-width:0.89357728"
         id="path839"
         inkscape:connector-curvature="0" />
    </g>
    <g
       aria-label="GPU Profiler"
       style="font-style:normal;font-weight:normal;font-size:38.65348816px;line-height:1.25;font-family:sans-serif;letter-spacing:0px;word-spacing:0px;fill:#000000;fill-opacity:1;stroke:none;stroke-width:0.96633708"
       id="text1606">
      <path
         d="m 92.551293,-211.50772 q -14.31387,0 -26.181698,-4.34852 -11.867829,-4.34851 -20.383676,-13.22674 -8.515846,-8.96881 -13.045552,-22.19556 -4.529706,-13.22674 -4.529706,-30.43962 0,-16.30694 4.529706,-29.1713 4.6203,-12.95496 13.136146,-22.10496 8.244065,-8.87823 20.293082,-13.67972 12.049017,-4.80148 26.362886,-4.80148 6.794559,0 13.045549,0.99653 6.251,0.99654 11.95843,2.71782 4.5297,1.35892 10.05594,3.80496 5.61684,2.35544 9.05941,4.07673 v 21.652 h -1.5401 q -3.35198,-2.98961 -6.97574,-5.61684 -3.53317,-2.71782 -10.05595,-5.79802 -5.43565,-2.71783 -12.50199,-4.52971 -7.066337,-1.81188 -15.219807,-1.81188 -19.477734,0 -31.526752,14.67625 -11.958422,14.67624 -11.958422,39.04606 0,13.58912 3.170794,23.73566 3.170793,10.14654 9.150005,17.21288 5.798023,6.97574 13.951493,10.6901 8.244065,3.62377 18.481199,3.62377 7.609906,0 15.12922,-1.08713 7.51931,-1.08713 12.68317,-3.26139 v -34.87873 H 88.474558 v -15.76338 h 48.920822 v 58.88617 q -3.44258,1.5401 -9.2406,3.89555 -5.70743,2.35545 -10.69011,3.71436 -6.61337,1.99307 -11.95842,2.98961 -5.34505,0.99653 -12.954957,0.99653 z"
         style="font-style:normal;font-variant:normal;font-weight:normal;font-stretch:normal;font-size:185.53674316px;font-family:Tahoma;-inkscape-font-specification:Tahoma;fill:#ffffff;stroke-width:0.96633708"
         id="path842" />
      <path
         d="m 245.20237,-308.35283 q 0,8.78763 -3.17079,16.66932 -3.0802,7.79109 -8.60644,13.31734 -6.97575,6.88515 -16.39754,10.41832 -9.42178,3.53317 -23.82625,3.53317 h -15.21981 v 50.27973 h -17.93763 v -134.89463 h 33.8822 q 11.95842,0 20.38367,1.99307 8.42525,1.99307 14.85744,6.43218 7.51931,5.16386 11.77723,13.13615 4.25792,7.88168 4.25792,19.11535 z m -18.66238,0.45297 q 0,-6.97574 -2.44604,-12.13961 -2.35545,-5.16386 -7.24753,-8.42525 -4.25793,-2.80842 -9.96536,-3.98614 -5.61683,-1.17772 -14.04208,-1.17772 h -14.85744 v 53.90349 h 12.23021 q 10.87129,0 17.57526,-1.72128 6.70396,-1.81189 11.14307,-6.34159 3.98614,-4.07674 5.79802,-8.87823 1.81189,-4.80148 1.81189,-11.23367 z"
         style="font-style:normal;font-variant:normal;font-weight:normal;font-stretch:normal;font-size:185.53674316px;font-family:Tahoma;-inkscape-font-specification:Tahoma;fill:#ffffff;stroke-width:0.96633708"
         id="path844" />
      <path
         d="m 309.34301,-211.32653 q -11.86783,0 -20.74605,-3.0802 -8.87823,-3.1708 -15.12922,-9.33119 -7.06634,-7.06635 -9.96535,-16.85051 -2.89901,-9.87476 -2.89901,-24.27922 v -84.16193 h 17.93763 v 84.16193 q 0,9.33119 1.17772,15.76337 1.17773,6.34159 4.6203,11.41486 3.62377,5.43565 9.78417,8.24407 6.25099,2.80841 15.21981,2.80841 8.42525,0 14.94803,-2.80841 6.52277,-2.80842 10.14654,-8.24407 3.35198,-5.16386 4.5297,-11.41486 1.26832,-6.25099 1.26832,-15.3104 v -84.6149 h 17.93764 v 84.16193 q 0,14.04209 -2.89902,24.09803 -2.80841,10.05595 -9.96535,17.0317 -6.43218,6.25099 -15.03862,9.33119 -8.51585,3.0802 -20.92724,3.0802 z"
         style="font-style:normal;font-variant:normal;font-weight:normal;font-stretch:normal;font-size:185.53674316px;font-family:Tahoma;-inkscape-font-specification:Tahoma;fill:#ffffff;stroke-width:0.96633708"
         id="path846" />
      <path
         d="m 527.13126,-308.35283 q 0,8.78763 -3.17079,16.66932 -3.0802,7.79109 -8.60644,13.31734 -6.97575,6.88515 -16.39754,10.41832 -9.42179,3.53317 -23.82625,3.53317 h -15.21981 v 50.27973 h -17.93764 v -134.89463 h 33.8822 q 11.95843,0 20.38368,1.99307 8.42525,1.99307 14.85743,6.43218 7.51931,5.16386 11.77724,13.13615 4.25792,7.88168 4.25792,19.11535 z m -18.66239,0.45297 q 0,-6.97574 -2.44604,-12.13961 -2.35544,-5.16386 -7.24753,-8.42525 -4.25792,-2.80842 -9.96535,-3.98614 -5.61683,-1.17772 -14.04209,-1.17772 h -14.85743 v 53.90349 h 12.2302 q 10.8713,0 17.57526,-1.72128 6.70397,-1.81189 11.14308,-6.34159 3.98614,-4.07674 5.79802,-8.87823 1.81188,-4.80148 1.81188,-11.23367 z"
         style="font-style:normal;font-variant:normal;font-weight:normal;font-stretch:normal;font-size:185.53674316px;font-family:Tahoma;-inkscape-font-specification:Tahoma;fill:#ffffff;stroke-width:0.96633708"
         id="path848" />
      <path
         d="m 596.43575,-297.02856 h -0.90594 q -1.90248,-0.54357 -4.07673,-0.63416 -2.08367,-0.18119 -5.07327,-0.18119 -6.88516,0 -13.67972,2.98961 -6.79455,2.9896 -12.86436,8.87822 v 71.84113 h -17.03169 v -101.19362 h 17.03169 v 15.03862 q 9.33119,-8.24406 16.21635,-11.59605 6.97574,-3.44257 13.49852,-3.44257 2.62723,0 3.89555,0.18119 1.35891,0.0906 2.9896,0.36237 z"
         style="font-style:normal;font-variant:normal;font-weight:normal;font-stretch:normal;font-size:185.53674316px;font-family:Tahoma;-inkscape-font-specification:Tahoma;fill:#ffffff;stroke-width:0.96633708"
         id="path850" />
      <path
         d="m 693.09967,-264.68646 q 0,25.54754 -12.3208,39.49903 -12.3208,13.8609 -32.79507,13.8609 -21.10843,0 -33.24804,-14.31387 -12.04902,-14.40447 -12.04902,-39.04606 0,-25.36636 12.4114,-39.40844 12.50199,-14.04209 32.88566,-14.04209 20.47427,0 32.79507,14.04209 12.3208,13.95149 12.3208,39.40844 z m -17.57526,0 q 0,-19.65893 -7.15693,-29.17131 -7.15694,-9.60297 -20.38368,-9.60297 -13.31733,0 -20.56486,9.60297 -7.15694,9.51238 -7.15694,29.17131 0,19.02476 7.15694,28.89952 7.24753,9.78416 20.56486,9.78416 13.13615,0 20.29308,-9.60297 7.24753,-9.69357 7.24753,-29.08071 z"
         style="font-style:normal;font-variant:normal;font-weight:normal;font-stretch:normal;font-size:185.53674316px;font-family:Tahoma;-inkscape-font-specification:Tahoma;fill:#ffffff;stroke-width:0.96633708"
         id="path852" />
      <path
         d="m 763.85368,-338.79245 h -0.90594 q -2.26485,-0.81535 -6.52278,-1.5401 -4.25792,-0.81534 -7.6099,-0.81534 -10.7807,0 -15.401,4.89208 -4.52971,4.80149 -4.52971,17.48466 v 3.44258 h 28.17477 v 14.13268 h -27.6312 v 87.06094 h -17.0317 v -87.06094 h -11.50545 v -14.13268 h 11.50545 v -3.35198 q 0,-18.30002 8.78763,-27.8124 8.78763,-9.51238 25.18517,-9.51238 4.71089,0 9.2406,0.54357 4.5297,0.45297 8.24406,1.08712 z"
         style="font-style:normal;font-variant:normal;font-weight:normal;font-stretch:normal;font-size:185.53674316px;font-family:Tahoma;-inkscape-font-specification:Tahoma;fill:#ffffff;stroke-width:0.96633708"
         id="path854" />
      <path
         d="m 787.04573,-214.13495 h -17.03169 v -101.19362 h 17.03169 z m 1.17773,-118.13472 h -19.38714 v -17.66585 h 19.38714 z"
         style="font-style:normal;font-variant:normal;font-weight:normal;font-stretch:normal;font-size:185.53674316px;font-family:Tahoma;-inkscape-font-specification:Tahoma;fill:#ffffff;stroke-width:0.96633708"
         id="path856" />
      <path
         d="M 829.4438,-214.13495 H 812.41211 V -355.09939 H 829.4438 Z"
         style="font-style:normal;font-variant:normal;font-weight:normal;font-stretch:normal;font-size:185.53674316px;font-family:Tahoma;-inkscape-font-specification:Tahoma;fill:#ffffff;stroke-width:0.96633708"
         id="path858" />
      <path
         d="m 898.38595,-211.7795 q -24.18863,0 -37.59656,-13.58912 -13.31733,-13.67971 -13.31733,-38.77428 0,-24.73219 12.95496,-39.31784 12.95496,-14.67625 33.8822,-14.67625 9.42178,0 16.66931,2.71782 7.24753,2.71783 12.68318,8.51585 5.43564,5.79802 8.33466,14.22328 2.89901,8.33465 2.89901,20.47426 v 9.2406 h -70.11985 q 0,17.66586 8.87823,26.99705 8.87822,9.33119 24.551,9.33119 5.61684,0 10.96189,-1.26831 5.43565,-1.26832 9.78416,-3.26139 4.6203,-2.08367 7.7911,-3.98614 3.17079,-1.99307 5.25446,-3.71436 h 0.99653 v 18.57179 q -2.9896,1.17773 -7.42872,2.98961 -4.43911,1.72129 -7.97228,2.71782 -4.98267,1.35891 -9.05941,2.08367 -3.98614,0.72475 -10.14654,0.72475 z m 19.93071,-64.23123 q -0.18119,-6.88515 -1.6307,-11.86783 -1.4495,-4.98267 -4.16733,-8.42525 -2.9896,-3.80495 -7.7005,-5.79802 -4.6203,-1.99307 -11.50545,-1.99307 -6.79456,0 -11.59605,2.08366 -4.71089,1.99307 -8.60644,5.88862 -3.80495,3.98614 -5.79802,8.87822 -1.99307,4.80149 -2.53664,11.23367 z"
         style="font-style:normal;font-variant:normal;font-weight:normal;font-stretch:normal;font-size:185.53674316px;font-family:Tahoma;-inkscape-font-specification:Tahoma;fill:#ffffff;stroke-width:0.96633708"
         id="path860" />
      <path
         d="m 1005.9211,-297.02856 h -0.9059 q -1.9025,-0.54357 -4.0767,-0.63416 -2.08371,-0.18119 -5.07331,-0.18119 -6.88515,0 -13.67971,2.98961 -6.79456,2.9896 -12.86437,8.87822 v 71.84113 h -17.03169 v -101.19362 h 17.03169 v 15.03862 q 9.3312,-8.24406 16.21635,-11.59605 6.97575,-3.44257 13.49852,-3.44257 2.62722,0 3.89552,0.18119 1.3589,0.0906 2.9896,0.36237 z"
         style="font-style:normal;font-variant:normal;font-weight:normal;font-stretch:normal;font-size:185.53674316px;font-family:Tahoma;-inkscape-font-specification:Tahoma;fill:#ffffff;stroke-width:0.96633708"
         id="path862" />
    </g>
  </g>
</svg>
